<?xml version="1.0" encoding="utf-8"?>
<!-- Generator: Adobe Illustrator 19.0.0, SVG Export Plug-In . SVG Version: 6.00 Build 0)  -->
<svg version="1.1" id="Layer_1" xmlns="http://www.w3.org/2000/svg" xmlns:xlink="http://www.w3.org/1999/xlink" x="0px" y="0px"
	 viewBox="-170 345.5 500 500" style="enable-background:new -170 345.5 500 500;" xml:space="preserve">
<style type="text/css">
	.st0{fill:#333333;}
	.st1{fill:#DD2267;}
</style>
<g id="BwIqgC.tif">
	<g id="XMLID_10_">
		<path id="XMLID_868_" class="st0" d="M60.2,682.6c-4-2.7-5.4-6.6-5.3-11.4c0.1-10.9,0-21.9,0.1-32.8c0-2.8-0.9-4.7-3.1-6.5
			c-23.7-19.1-23.7-53.2,0-72.3c2.2-1.8,3.1-3.7,3.1-6.5c-0.1-10.9-0.1-21.9,0-32.8c0-8.6,3.3-11.8,11.9-11.9c9.1,0,18.2,0,27.3,0
			c7.4,0,11.1,3.7,11.2,11.3c0.2,10.9,0.1,21.9,0,32.8c0,3.3,1,5.4,3.5,7.6c23.1,19.7,22.7,52.7-0.7,71.9c-2.1,1.8-2.8,3.6-2.8,6.2
			c0.1,10.8,0,21.6,0,32.4c0,5-1.4,9.2-6,11.9C86.3,682.6,73.3,682.6,60.2,682.6z M79.8,635.7c22.1,0.1,39.8-17.5,39.8-39.6
			c0.1-22.2-17.5-40.1-39.4-40.2c-22.1-0.1-39.7,17.5-39.7,39.7C40.5,618.2,57.6,635.6,79.8,635.7z"/>
		<path id="XMLID_867_" class="st1" d="M110.5,577.2c0,1.8-0.9,2.7-2,3.4c-8.7,5.6-17.5,11.1-26.2,16.7c-1.9,1.2-3.4,0.8-4.9-0.7
			c-4.4-4.4-8.8-8.8-13.2-13.3c-1.2-1.2-2.6-2.7-0.8-4.4c1.7-1.6,3.2-0.2,4.4,1c3.4,3.4,6.9,6.7,10.1,10.3c1.9,2.1,3.2,1.9,5.4,0.5
			c7.4-4.8,14.8-9.5,22.3-14.2C107.5,575.4,109.4,574.5,110.5,577.2z"/>
	</g>
</g>
</svg>
