<?xml version="1.0" encoding="utf-8"?>
<!-- Generator: Adobe Illustrator 19.0.0, SVG Export Plug-In . SVG Version: 6.00 Build 0)  -->
<svg version="1.1" id="Layer_1" xmlns="http://www.w3.org/2000/svg" xmlns:xlink="http://www.w3.org/1999/xlink" x="0px" y="0px"
	 viewBox="80.9 133.9 500 500" style="enable-background:new 80.9 133.9 500 500;" xml:space="preserve">
<style type="text/css">
	.st0{fill:#656565;stroke:#656565;stroke-width:0.5;stroke-miterlimit:10;}
</style>
<g id="MnnX1a.tif_1_">
	<g id="XMLID_2097_">
		<path id="XMLID_2104_" class="st0" d="M394.9,478.6c-12.5-2.3-26.4-4.9-40.3-7.5c-11.7-2.2-23.3-4.4-35-6.6
			c-2.5-0.5-4.7,0-7.1,0.7c-20.4,6.4-40.7,12.8-61.1,19.1c-11.4,3.5-16.3,0.9-19.8-10.4c-10.3-32.8-20.6-65.7-30.8-98.6
			c-2.8-9,0.2-14.6,9.2-17.4c12.2-3.8,24.3-7.6,36.6-11.2c3.9-1.1,5.8-3.1,6.3-7c0.4-3.4,1.1-6.8,1.9-10.1
			c1.9-7.7,7.1-11.1,14.9-9.8c11.9,2,23.7,4.1,35.6,6.4c2.2,0.4,4.1,0.1,6-0.5c13.8-4.2,27.7-8.4,41.5-12.6
			c8.4-2.5,14.1,0.4,16.9,8.7c1,2.9,2.4,5.8,2.9,8.8c1.2,7.4,5.6,9.9,12.7,10.9c11.2,1.5,22.4,4,33.5,6.1c7.3,1.4,11.3,6.9,9.9,14.3
			c-6.5,35.7-13.2,71.4-19.9,107.1C407.5,475.3,402.7,478.7,394.9,478.6z M406.2,417.7c0.4,0,0.8-0.1,1.3-0.1
			c3.5-18.8,6.9-37.5,10.4-56.3c0.6-3.1-1.7-3.3-3.7-3.7C366.4,348.8,318.7,340,271,331c-4.2-0.8-5.9,0.4-6.6,4.6
			c-6.1,33.2-12.2,66.4-18.5,99.5c-0.7,3.6,0.5,5.1,3.9,5.6c4.9,0.8,9.9,1.4,14.7,2.7c4.6,1.2,7.7-0.1,11.1-3.3
			c18.3-17.5,36.8-34.8,55.2-52.1c4.8-4.5,8.4-3.9,11.3,2c3,6,6.2,11.9,8.8,18.1c1.6,3.7,2.9,3.5,5.3,0.8c7.7-8.4,15.4-16.7,23.2-25
			c5.4-5.8,9.1-5.1,12.3,2C396.5,396.4,401.4,407.1,406.2,417.7z M284.4,446.4c3.9,1,6.7,1.9,9.5,2.4c14.7,2.8,29.4,5.4,44.1,8.1
			c18.3,3.4,36.5,6.8,54.8,10.3c2.8,0.5,5.2,0.6,5.9-3c1.4-7.8,2.8-15.6,4.3-23.4c0.4-2.3-0.2-4.4-1.1-6.5
			c-5.4-11.9-10.9-23.8-16.1-35.8c-1.6-3.7-2.8-3-4.9-0.7c-7.7,8.4-15.5,16.6-23.2,25c-5.2,5.7-8.7,5.3-12.1-1.5
			c-3-5.8-6.1-11.6-8.6-17.6c-2-4.8-3.7-4.1-6.6-0.9c-2.8,3-6,5.7-9,8.5C309.3,422.9,297.3,434.3,284.4,446.4z M291.1,460.1
			c-0.8-1.4-1.9-1.2-2.9-1.3c-14-2.7-28.1-5.3-42.1-8c-8.9-1.7-12.7-7.1-11.1-15.9c1.7-9.3,3.4-18.6,5.2-27.9
			c2.8-14.7,5.6-29.4,8.3-44.1c0.4-2.3,2-6-3.1-4.5c-10.6,3.1-21.1,6.4-31.6,9.6c-2.8,0.8-3.3,2.3-2.5,5c10.4,33,20.8,66,31,99.1
			c1.1,3.4,2.7,3.2,5.4,2.3c12.3-4,24.6-7.8,36.9-11.8C286.7,461.8,289.2,461.7,291.1,460.1z M332.7,330.5c0,0.3,0,0.7,0,1
			c6.5,1.2,13,2.6,19.5,3.7c3.5,0.6,8.4,3.3,10,0.9c1.7-2.5-1.7-6.9-2.7-10.5c-0.5-1.7-1.4-2.7-3.4-2.1
			C348.4,325.8,340.5,328.2,332.7,330.5z"/>
		<path id="XMLID_2100_" class="st0" d="M314.7,376.6c-0.1,11-9.9,20.5-21.1,20.4c-10.5-0.1-20.6-10.2-20.6-20.5
			c0-10.5,10.5-21.2,20.8-21.1C304.8,355.3,314.8,365.5,314.7,376.6z M293.9,386.1c6.2,0,10-3.8,10-9.9c0-6.3-4.1-10.4-10.3-10.2
			c-5.7,0.1-10,4.6-9.8,10.3C283.9,382.4,287.8,386.2,293.9,386.1z"/>
	</g>
</g>
</svg>
