<?xml version="1.0" encoding="utf-8"?>
<!-- Generator: Adobe Illustrator 19.0.0, SVG Export Plug-In . SVG Version: 6.00 Build 0)  -->
<svg version="1.1" id="Layer_1" xmlns="http://www.w3.org/2000/svg" xmlns:xlink="http://www.w3.org/1999/xlink" x="0px" y="0px"
	 viewBox="-170 345.5 500 500" style="enable-background:new -170 345.5 500 500;" xml:space="preserve">
<style type="text/css">
	.st0{fill:#333333;}
	.st1{fill:#D6AFE5;}
	.st2{fill:#DD2267;}
</style>
<g id="RxmoOM.tif">
	<g id="XMLID_3753_">
		<path id="XMLID_3842_" class="st0" d="M88,645.5c-5.3,1.2-10.2,1.5-15,0.7c-2.6-0.4-3.7,0.1-3.1,3.3c1.6,7.7-2.1,15.1-9.1,19.2
			c-7.6,4.5-16.1,5.8-24.7,6.8c-4.3,0.5-8.7,0.9-13,1.6c-4.5,0.7-7.7,3.3-9.3,7.7c-0.5,1.4-1.1,2.8-3,2.2c-2.1-0.7-1-2.3-0.6-3.6
			c2.1-6.3,8.6-10.5,16.2-10.9c9.2-0.5,18.4-1.5,27.2-4.6c5.8-2.1,10.5-5.4,12.2-11.8c1.7-6-0.5-11-6-13.8
			c-11.8-6-19.5-15.4-22.7-28.1c-0.9-3.7-4-4.8-6.3-6.8c-14.1-12.2-19-27.6-14.9-45.4c4.9-21.4,17.1-38.2,34.6-51.2
			c9.9-7.3,20.9-12.1,33.1-13.7c12.9-1.7,25.3-0.4,35.9,8.6c8.8,7.5,12.8,23.8,7.1,33.4c-2.3,3.9-1.7,6.4,0.6,9.8
			c8.2,12,10.8,25.4,7.8,39.7c-1.8,8.5-6.1,16-12,22.5c-1.8,2-3.3,4.2-4.2,6.8c-4.2,11.9-12.2,20.3-23.7,25.4
			c-1.7,0.7-2.6,1.7-3.2,3.5c-3.1,9.4,1.5,18,11.2,21.2c9.1,3,18.5,4.2,28,4.7c7.3,0.4,13.4,4.6,15.8,11c0.5,1.4,1.1,2.8-0.8,3.5
			c-1.7,0.6-2.2-0.7-2.6-2c-2.2-6.3-7.4-8.2-13.3-8.7c-7.5-0.6-15-1.4-22.4-3.1c-5.3-1.3-10.2-3.3-14.5-6.9
			c-5.7-4.7-6.8-10.8-5.7-17.7C87.6,647.8,87.8,646.9,88,645.5z M35.6,606.1c0.1-1.2,0.1-1.7,0.1-2.1c0.4-17.2,7.9-30.2,23-38.7
			c3-1.7,6.5-2.6,9.3-4.5c3.2-2.2,6.5-4.1,10-5.6c10.8-4.6,22.3-6.6,33.7-9.2c3.9-0.9,7.5-2.3,10-5.9c7.4-10.5,3.2-27.7-8.6-34.5
			c-10.8-6.3-22.5-6.7-33.9-3.7c-31.8,8.4-51.1,30-59.4,61.1C15.3,580,21.4,594.5,35.6,606.1z M121.5,606.6
			c4.2-4.3,6.3-8.6,8.1-13.1c6.5-16.4,2.9-31.4-7.1-45.3c-0.6-0.9-1.3-1.9-2.8-1.2c-8.1,3.8-17.1,4.3-25.5,6.7
			c-5.3,1.5-10.6,3.2-15.7,5.8c12.3,0.9,22.8,5.1,31.2,14.2C118,582.7,121.7,593.4,121.5,606.6z M96.5,609.3c7,0,12.5-5.4,12.5-12.3
			c0-6.9-5.5-12.4-12.4-12.5c-6.9-0.1-12.8,5.8-12.9,12.6C83.6,603.7,89.5,609.3,96.5,609.3z M73.6,596.9
			c1.1-6.1-6.7-12.8-12.4-12.5c-7,0.4-12.4,5.7-12.4,12.7c0.1,7,5.5,12.3,12.6,12.2C68.6,609.3,73.6,604.1,73.6,596.9z M79.8,634.7
			c3.8,0.2,6.9-2.3,9.7-5.5c0.7-0.8,1.3-1.7-0.1-2.5c-3.1-1.6-5.5-5.7-9.8-2.5c-0.9,0.7-1.7-0.1-2.4-0.5c-2.3-0.9-8.1,1.1-9.4,3.3
			c-0.7,1.1-0.1,1.9,0.6,2.7C71.1,633.1,74.7,634.7,79.8,634.7z"/>
		<path id="XMLID_3834_" class="st1" d="M55,601.5L55,601.5c0.1,1.1-0.2,2.5,1.3,2.8c1.7,0.4,1.5-1.9,2.8-2.2c1.1,0.7-0.3,2.9,1.5,3
			c2.4,0.2,0.6-2.8,2.2-3.3c1.1,0.6,1.4,3.7,2.7,2.1c1.3-1.6,5.8-1.7,3.5-5.7c-0.3-0.5,0.9-1.9-0.3-2.6c-1-0.6-1.6,0.3-2.3,0.8
			c-3.8,2.8-7.6,2.7-11.3-0.1c-0.7-0.5-1.4-1.3-2.3-0.6c-1,0.7-0.5,1.5-0.2,2.4c0.2,0.4,0.1,1-0.1,1.4C51.3,602.9,53,602.4,55,601.5
			z"/>
		<path id="XMLID_3831_" class="st2" d="M79.8,634.7c-5.1,0-8.7-1.6-11.5-4.9c-0.7-0.8-1.2-1.6-0.6-2.7c1.3-2.2,7-4.2,9.4-3.3
			c0.8,0.3,1.5,1.2,2.4,0.5c4.3-3.1,6.7,0.9,9.8,2.5c1.4,0.7,0.8,1.6,0.1,2.5C86.7,632.4,83.5,634.9,79.8,634.7z M78.6,630.1
			c1.6-0.4,4.4,0.7,4.5-1.5c0.1-2-2.6-1.7-4.3-1.7c-1.7,0-4.5-0.3-4.5,1.5C74.2,630.5,76.9,629.9,78.6,630.1z"/>
		<path id="XMLID_3830_" class="st0" d="M98.1,601.8c-1,0.9,0.7,3.2-1.5,3.3c-1.8,0-1.4-1.8-1.6-3c-1.7-0.2-1.4,3.7-4.5,1.4
			c-3-2.3-2.8-4.7-2.5-7.3c0.2-1.4,1.9-0.8,2.8,0.1c3.7,3.3,7.4,2.8,11.2,0.1c0.7-0.5,1.4-1.4,2.4-0.8c1.1,0.6,0.2,1.7,0.4,2.3
			c1.9,3.8-2,4.7-3.6,6.2C99.4,605.7,99.5,602.2,98.1,601.8z"/>
		<path id="XMLID_3829_" class="st0" d="M55,601.5c-2,0.9-3.8,1.4-2.5-1.9c0.2-0.4,0.2-1,0.1-1.4c-0.3-0.9-0.8-1.7,0.2-2.4
			c1-0.7,1.6,0.1,2.3,0.6c3.7,2.8,7.5,2.9,11.3,0.1c0.7-0.5,1.3-1.4,2.3-0.8c1.3,0.7,0,2.1,0.3,2.6c2.3,4-2.3,4.1-3.5,5.7
			c-1.3,1.6-1.6-1.5-2.7-2.1c-1.6,0.5,0.2,3.5-2.2,3.3c-1.8-0.2-0.4-2.3-1.5-3c-1.3,0.3-1.1,2.6-2.8,2.2
			C54.8,604,55.1,602.6,55,601.5c0.1-0.1,0.2-0.1,0.2-0.1c0,0,0.1-0.1,0.1-0.2C55.2,601.3,55.1,601.4,55,601.5z"/>
		<path id="XMLID_3827_" class="st0" d="M55,601.5c0.1-0.1,0.2-0.2,0.3-0.3c0,0.1,0,0.2-0.1,0.2C55.2,601.4,55.1,601.4,55,601.5
			L55,601.5z"/>
	</g>
</g>
</svg>
