<?xml version="1.0" encoding="utf-8"?>
<!-- Generator: Adobe Illustrator 19.0.0, SVG Export Plug-In . SVG Version: 6.00 Build 0)  -->
<svg version="1.1" id="Layer_1" xmlns="http://www.w3.org/2000/svg" xmlns:xlink="http://www.w3.org/1999/xlink" x="0px" y="0px"
	 viewBox="80.9 133.9 500 500" style="enable-background:new 80.9 133.9 500 500;" xml:space="preserve">
<style type="text/css">
	.st0{fill:#FFFFFF;}
</style>
<g id="_315810512">
	<path class="st0" d="M289.4,391.7v-0.6l0,0l0,0l0.6-15c-5.5-1.5-10.5-4.6-14.3-8.6c-4.4-4.7-7.3-10.8-8-17.5
		c-0.9-4.2-0.9-8.6-0.1-12.8c0.8-4.2,2.4-8.3,4.9-12c2.4-3.7,5.6-6.7,9.2-9c3.6-2.3,7.7-4,12-4.7l0.6-0.1h32.5l0.9,0.1
		c10.8,2.8,17.9,10.1,21.5,18.8c1.7,4.3,2.6,8.9,2.7,13.5h5.7l0.6,0.1c4.3,0.7,8.4,2.3,12,4.7c3.6,2.3,6.8,5.4,9.2,9
		c2.4,3.7,4.1,7.7,4.9,12c0.8,4.2,0.8,8.6-0.1,12.8c-0.7,6.7-3.6,12.8-8,17.5c-3.8,4.1-8.7,7.1-14.3,8.6l0.6,15l0,0l0,0v0.6v0.1
		c-0.1,1.2-0.9,2.4-2,3c-1.1,0.5-2.2,0.4-3.2-0.1l-0.2-0.1l-22.5-18.1h-6.8h-0.3c-10.3-0.9-17.8-6.3-22.2-13.7
		c-1.2-1.9-2.2-4.1-3-6.3l-7.1,5.8l-0.2,0.1c-0.9,0.6-2.2,0.6-3.2,0.1c-1.2-0.6-1.9-1.7-2-3v-0.1L289.4,391.7z M351.2,350.7
		c-0.7,4.2-2.2,8.3-4.5,12c-4.5,7.4-12,12.8-22.2,13.7h-0.3h-6.8l-9.7,7.8c0.6,2.6,1.7,5.1,3.1,7.3c3.5,5.6,9.1,9.7,17,10.4h7.8
		l2.1,0.7l17.7,14.3l-0.4-11l-0.1-3l2.9-0.5c5.3-0.9,9.9-3.5,13.4-7.3c3.5-3.7,5.8-8.6,6.3-13.9l0.1-0.4c0.7-3.4,0.8-6.9,0.1-10.2
		c-0.6-3.3-1.9-6.6-3.9-9.4c-1.9-2.9-4.5-5.3-7.3-7.1c-2.8-1.8-5.9-3-9.2-3.7h-6V350.7z M296.8,373.7l-0.4,11l3.9-3.2l0.4-0.3
		l13.4-10.9l2.1-0.7h7.8c7.8-0.7,13.5-4.8,17-10.4c1.6-2.5,2.7-5.4,3.3-8.4v-0.1l0,0v-0.1v-0.1l0,0v-0.1c0.3-1.3,0.4-2.6,0.5-3.9
		c0.4-4.5-0.4-9.2-2.1-13.5c-2.7-6.8-8.2-12.4-16.4-14.7h-31.9c-3.3,0.6-6.4,1.9-9.2,3.7c-2.9,1.9-5.3,4.2-7.3,7.1
		c-1.9,2.9-3.2,6.1-3.9,9.4c-0.6,3.3-0.6,6.8,0.1,10.2l0.1,0.4c0.5,5.3,2.8,10.2,6.3,13.9s8.1,6.3,13.4,7.3l2.9,0.5l-0.1,3
		L296.8,373.7z"/>
	<g>
		<path class="st0" d="M294.7,339.5c2.3,0,4.2,1.9,4.2,4.2s-1.9,4.2-4.2,4.2s-4.2-1.9-4.2-4.2S292.4,339.5,294.7,339.5z"/>
		<path class="st0" d="M309.8,339.5c2.3,0,4.2,1.9,4.2,4.2s-1.9,4.2-4.2,4.2s-4.2-1.9-4.2-4.2S307.5,339.5,309.8,339.5z"/>
		<path class="st0" d="M325,339.5c2.3,0,4.2,1.9,4.2,4.2s-1.9,4.2-4.2,4.2s-4.2-1.9-4.2-4.2S322.7,339.5,325,339.5z"/>
	</g>
</g>
</svg>
