<?xml version="1.0" encoding="utf-8"?>
<!-- Generator: Adobe Illustrator 19.0.0, SVG Export Plug-In . SVG Version: 6.00 Build 0)  -->
<svg version="1.1" id="Layer_1" xmlns="http://www.w3.org/2000/svg" xmlns:xlink="http://www.w3.org/1999/xlink" x="0px" y="0px"
	 viewBox="80.9 133.9 500 500" style="enable-background:new 80.9 133.9 500 500;" xml:space="preserve">
<style type="text/css">
	.st0{fill:#656565;}
</style>
<g id="H1SBVj.tif_1_">
	<g id="XMLID_2782_">
		<path id="XMLID_2783_" class="st0" d="M284.6,315.7c13.2-0.2,24.2,4.9,33.3,14c25.7,25.5,51.4,51,76.8,76.8
			c15,15.3,14.9,35.4,0.6,49.6c-13.7,13.5-34.2,12.9-48.9-1.7c-20.3-20.1-40.5-40.3-60.5-60.6c-10.9-11-11.7-23.9-2.2-33.7
			c9.4-9.8,23.5-9.4,34.5,1.3c13.9,13.6,27.5,27.4,41.3,41.1c3.1,3.1,6.1,5.8,1.4,10.1c-4.4,4.1-6.8,0.7-9.5-2
			c-13.6-13.5-27-27.1-40.6-40.5c-6.7-6.7-13.5-7.4-18.4-2.3c-5.2,5.4-4.7,11.7,2.1,18.6c19.9,20.1,39.8,40.1,60,59.9
			c10,9.8,24.5,10.1,33.3,1.5c9.6-9.5,9.2-23-1.5-33.7c-25.5-25.7-51.1-51.3-76.8-76.8c-10.1-10-22.4-12.7-35.8-8.4
			c-11.8,3.8-18.1,12.9-19.9,24.8c-1.8,11.9,2.9,21.9,11.2,30.3c20.3,20.5,40.8,40.8,61.1,61.2c1.7,1.7,3.3,3.4,5,5
			c2.7,2.6,2.5,4.9,0,7.6c-2.8,2.9-5.3,3.3-8.2,0.3c-23.6-23.9-47.8-47.1-70.5-71.8c-12.6-13.7-14-31-5.5-47.8
			C254.3,323.3,267.5,315.9,284.6,315.7z"/>
	</g>
</g>
</svg>
