<?xml version="1.0" encoding="utf-8"?>
<!-- Generator: Adobe Illustrator 19.0.0, SVG Export Plug-In . SVG Version: 6.00 Build 0)  -->
<svg version="1.1" id="Layer_1" xmlns="http://www.w3.org/2000/svg" xmlns:xlink="http://www.w3.org/1999/xlink" x="0px" y="0px"
	 viewBox="80.9 133.9 500 500" style="enable-background:new 80.9 133.9 500 500;" xml:space="preserve">
<style type="text/css">
	.st0{fill:#9D9E9E;}
</style>
<g id="Layer_x0020_1">
	<path class="st0" d="M308.9,429.1c0,0,7,7.2,21.5,23v-20.6v-3.7l3.7-0.2c4.9-0.2,9.5-1.2,13.9-2.8c4.4-1.6,8.5-3.9,12.4-6.8
		l0.1-0.1c14.3-9.9,14.2-21.6,14.1-36.6c0-2.4-0.1-4.2-0.1-4.6l0,0c-0.1-3.6-0.6-7.1-1.5-10.6s-2.1-6.8-3.6-10l0,0
		c-3.4-6-7.6-10.9-12.7-14.3c-4.6-3.1-9.9-5-16.1-5.3l0,0c-2.3,0-6.4-0.1-11.1-0.2c-13-0.4-30.5-0.8-36.9,0.9h-0.1
		c-8.8,2.2-16.4,6.8-22.1,13.2c-5.7,6.4-9.5,14.5-10.7,23.5l-0.1,0.6c-0.1,0.4-0.2,2-0.2,4.6c0,3,0.1,7.1,0.4,11.9l0,0
		c1.2,12.2,6.3,21.5,13.9,27.6c8.3,6.7,19.7,9.9,32,9.1l1.8-0.1l1.3,1.3V429.1z"/>
</g>
</svg>
