<?xml version="1.0" encoding="utf-8"?>
<!-- Generator: Adobe Illustrator 19.0.0, SVG Export Plug-In . SVG Version: 6.00 Build 0)  -->
<svg version="1.1" id="Layer_1" xmlns="http://www.w3.org/2000/svg" xmlns:xlink="http://www.w3.org/1999/xlink" x="0px" y="0px"
	 viewBox="-170 345.5 500 500" style="enable-background:new -170 345.5 500 500;" xml:space="preserve">
<style type="text/css">
	.st0{fill:#F7CB4F;}
	.st1{fill:#516C6D;}
</style>
<g id="XMLID_3717_">
	<g id="XMLID_3725_">
		<circle id="XMLID_3805_" class="st0" cx="80.7" cy="595.8" r="67.1"/>
	</g>
	<g id="XMLID_3720_">
		<g id="XMLID_3722_">
			<circle id="XMLID_3803_" class="st1" cx="58.1" cy="575.7" r="5"/>
		</g>
		<g id="XMLID_3721_">
			<circle id="XMLID_3801_" class="st1" cx="103.3" cy="575.7" r="5"/>
		</g>
	</g>
	<g id="XMLID_3718_">
		<path id="XMLID_3094_" class="st1" d="M48.8,624.1c-0.8,0-1.6-0.2-2.3-0.7c-1.8-1.3-2.2-3.7-1-5.5c0.5-0.7,12.9-18.2,35.1-18.2
			c22.2,0,34.7,17.4,35.3,18.1c1.3,1.8,0.8,4.3-0.9,5.5c-1.8,1.3-4.3,0.8-5.5-0.9c-0.1-0.1-10.8-14.8-28.8-14.8
			c-18.1,0-28.4,14.6-28.5,14.8C51.3,623.5,50,624.1,48.8,624.1z"/>
	</g>
</g>
</svg>
