<?xml version="1.0" encoding="utf-8"?>
<!-- Generator: Adobe Illustrator 19.0.0, SVG Export Plug-In . SVG Version: 6.00 Build 0)  -->
<svg version="1.1" id="Layer_1" xmlns="http://www.w3.org/2000/svg" xmlns:xlink="http://www.w3.org/1999/xlink" x="0px" y="0px"
	 viewBox="-170 345.5 500 500" style="enable-background:new -170 345.5 500 500;" xml:space="preserve">
<style type="text/css">
	.st0{fill:#F7CB4F;}
	.st1{fill:#F2695F;}
	.st2{fill:#516C6D;}
</style>
<g id="XMLID_3528_">
	<g id="XMLID_3538_">
		<circle id="XMLID_3793_" class="st0" cx="80.5" cy="595.8" r="67.1"/>
	</g>
	<g id="XMLID_3537_">
		<path id="XMLID_3791_" class="st1" d="M26.4,595.8c0,29.9,24.2,54.1,54.1,54.1c29.9,0,54.1-24.2,54.1-54.1H26.4z"/>
	</g>
	<g id="XMLID_3529_">
		<g id="XMLID_3535_">
			<path id="XMLID_3093_" class="st2" d="M71,582C70.9,582,70.9,582,71,582c-2.3-0.1-4-1.9-4-4.1c0-0.8-0.3-3.5-1.6-4.9
				c-0.4-0.4-1.2-1-2.9-1c-4.4,0-4.8,4.6-4.8,6c0,2.2-1.8,3.9-4,3.9c0,0,0,0,0,0c-2.2,0-3.9-1.8-3.9-4c0-5.6,3.4-13.9,12.8-13.9
				c3.5,0,6.5,1.2,8.6,3.4c3.9,4,3.9,9.9,3.9,10.6C74.9,580.3,73.1,582,71,582z"/>
		</g>
		<g id="XMLID_3534_">
			<path id="XMLID_3092_" class="st2" d="M107.4,582C107.3,582,107.3,582,107.4,582c-2.3-0.1-4-1.9-4-4.1c0-0.8-0.3-3.5-1.6-4.9
				c-0.4-0.4-1.2-1-2.9-1c-4.4,0-4.8,4.6-4.8,6c0,2.2-1.8,3.9-4,3.9c0,0,0,0,0,0c-2.2,0-3.9-1.8-3.9-4c0-5.6,3.4-13.9,12.8-13.9
				c3.5,0,6.5,1.2,8.6,3.4c3.9,4,3.9,9.9,3.9,10.6C111.3,580.3,109.5,582,107.4,582z"/>
		</g>
	</g>
</g>
</svg>
