<?xml version="1.0" encoding="utf-8"?>
<!-- Generator: Adobe Illustrator 19.0.0, SVG Export Plug-In . SVG Version: 6.00 Build 0)  -->
<svg version="1.1" id="Layer_1" xmlns="http://www.w3.org/2000/svg" xmlns:xlink="http://www.w3.org/1999/xlink" x="0px" y="0px"
	 viewBox="341.9 -0.1 500 500" style="enable-background:new 341.9 -0.1 500 500;" xml:space="preserve">
<style type="text/css">
	.st0{fill:#C7C7C7;}
	.st1{fill:#333333;}
</style>
<g id="XMLID_6085_">
	<g id="XMLID_6097_">
		<circle id="XMLID_6105_" class="st0" cx="591" cy="249.9" r="122.1"/>
	</g>
	<g id="XMLID_6094_">
		<path id="XMLID_6095_" class="st1" d="M591,339.6c-49.5,0-89.7-40.3-89.7-89.7c0-4,3.2-7.2,7.2-7.2s7.2,3.2,7.2,7.2
			c0,41.5,33.8,75.3,75.3,75.3c41.5,0,75.3-33.8,75.3-75.3c0-4,3.2-7.2,7.2-7.2s7.2,3.2,7.2,7.2C680.8,299.4,640.5,339.6,591,339.6z
			"/>
	</g>
	<g id="XMLID_6086_">
		<g id="XMLID_6092_">
			<circle id="XMLID_6093_" class="st1" cx="549.9" cy="213.3" r="9.1"/>
		</g>
		<g id="XMLID_6087_">
			<circle id="XMLID_6088_" class="st1" cx="632.2" cy="213.3" r="9.1"/>
		</g>
	</g>
</g>
</svg>
