<?xml version="1.0" encoding="utf-8"?>
<!-- Generator: Adobe Illustrator 19.0.0, SVG Export Plug-In . SVG Version: 6.00 Build 0)  -->
<svg version="1.1" id="Layer_1" xmlns="http://www.w3.org/2000/svg" xmlns:xlink="http://www.w3.org/1999/xlink" x="0px" y="0px"
	 viewBox="-170 345.5 500 500" style="enable-background:new -170 345.5 500 500;" xml:space="preserve">
<style type="text/css">
	.st0{fill:#DD2267;}
	.st1{fill:#333333;}
</style>
<g id="_x39_8UFr5.tif">
	<g id="XMLID_11_">
		<path id="XMLID_1608_" class="st0" d="M79.1,625.9c24.3,0,48.7-0.1,73,0.1c3.8,0,5.2-0.9,5.1-4.9c-0.2-23.1-0.1-46.2-0.1-69.4
			c0-5.9-1.1-7-7.2-7c-12.9,0-25.8,0-38.7,0c-1.6,0-3.3,0.3-4.4-1.3c-1.6-2.4,0-5,3.2-5.1c5.2-0.1,10.5-0.1,15.7-0.1
			c1.9,0,3.8,0.1,5.3-1.3c0.8-0.8,2.1-1.2,3-0.5c3.6,2.9,7.7,1.5,11.6,1.8c2.1,0.1,4.3-0.1,6.4,0.1c7.2,0.6,10.9,4.7,11,11.9
			c0,29.2,0,58.3,0,87.5c0,7.7-4.3,12.1-12,12.1c-48,0-96,0-144,0c-7.8,0-12.3-4.5-12.3-12.3c0-29,0-58.1,0-87.1
			c0-6.9,3.6-11.1,10.6-11.9c3.7-0.4,7.5-0.2,11.3-0.3c2.3,0,4.5,0.2,6.5-1.5c1.1-1,2.6-0.9,3.7,0.1c1.5,1.3,3.2,1.3,4.9,1.3
			c2.3,0,3.9,0.6,3.8,3.4c-0.1,2.7-1.7,3-3.8,3c-7.9,0-15.9,0-23.8,0c-5.9,0-7.1,1.3-7.1,7.1c0,23.1,0.1,46.2-0.1,69.4
			c0,3.7,1.1,4.9,4.8,4.8C30.1,625.8,54.6,625.9,79.1,625.9z M82.8,637.1c0.1-2.3-1.5-4.1-4.5-4.2c-3-0.1-4.7,1.8-4.7,4.8
			c0,3.1,1.9,4.8,4.8,4.8C81.1,642.4,83,641,82.8,637.1z"/>
		<path id="XMLID_1594_" class="st1" d="M40.1,546.7c0-8.3-0.1-16.7,0-25c0.1-7.6,3.9-12.1,11.4-12.4c13-0.4,26.1-0.4,39.1,0
			c7.9,0.3,11.1,4.4,11.2,12.3c0,6.5,0,12.9,0.1,19.4c0,2.2-0.3,3.6-3,3.6c-2.6,0-3.1-1.5-3.1-3.7c0-6.5,0-12.9,0-19.4
			c-0.1-4.7-1.3-6-6-6c-12.4-0.1-24.7-0.1-37.1,0c-4.9,0-6.4,1.6-6.4,6.6c0,14.8,0.1,29.6-0.1,44.3c0,3.3,1,4.5,4.4,4.5
			c9.4-0.2,18.8,0,28.2-0.1c3.1,0,4.3,1.1,4.3,4.2c-0.1,11.3,0.6,9.8-9.2,9.8c-6.5,0.1-12.9,0-19.4,0c-10,0-14.3-4.3-14.3-14.2
			C40.1,562.8,40.1,554.7,40.1,546.7z"/>
		<path id="XMLID_1429_" class="st1" d="M87.1,571.4c0-5.4-0.1-10.8,0-16.1c0.1-5.1,1.4-6.1,6.3-6.1c5.4,0,10.7-0.2,16.1-0.1
			c5,0,6.1,1.4,6.1,6.3c0.1,9.9,0.3,19.9,0.3,29.8c0,7.8-1.1,8.8-8.9,8.8c-4.4,0-8.9,0-13.3,0c-5.2-0.1-6.6-1.5-6.7-6.8
			C87.1,581.9,87.1,576.6,87.1,571.4C87.1,571.4,87.1,571.4,87.1,571.4z M93.6,569.7c0,1.3,0,2.7,0,4c0.3,13-2.5,11.1,12.1,11.2
			c2.7,0,3.9-0.9,3.9-3.7c-0.1-7.5-0.1-15,0-22.5c0-2.6-1.1-3.6-3.6-3.5c-2.9,0.1-5.9,0.1-8.8,0c-2.6-0.1-3.6,1.1-3.5,3.7
			C93.7,562.5,93.6,566.1,93.6,569.7z"/>
		<path id="XMLID_1415_" class="st1" d="M78.4,678.8c-6.6,0-13.2,0-19.7,0c-2.2,0-4.1-0.2-4-3.2c0.1-2.7,1.8-2.9,3.8-2.9
			c3.4,0,6.7-0.1,10.1,0c2.7,0.1,3.9-0.9,3.8-3.7c-0.1-3.5,0.1-7-0.1-10.5c-0.2-3.4,1.3-4.7,4.5-4.3c0.5,0.1,1.1,0,1.6,0
			c5.3,0,5.4,0.1,5.5,5.4c0,3,0.2,5.9,0,8.9c-0.2,3.4,1.2,4.5,4.5,4.3c3.5-0.2,7,0,10.5,0c1.8,0,3.1,0.4,3,2.7c-0.1,2-0.6,3.4-3,3.4
			C92.1,678.7,85.2,678.7,78.4,678.8C78.4,678.8,78.4,678.8,78.4,678.8z"/>
	</g>
</g>
</svg>
