<?xml version="1.0" encoding="utf-8"?>
<!-- Generator: Adobe Illustrator 19.0.0, SVG Export Plug-In . SVG Version: 6.00 Build 0)  -->
<svg version="1.1" id="Layer_1" xmlns="http://www.w3.org/2000/svg" xmlns:xlink="http://www.w3.org/1999/xlink" x="0px" y="0px"
	 viewBox="0 0 500 500" style="enable-background:new 0 0 500 500;" xml:space="preserve">
<style type="text/css">
	.st0{fill:#4B4A46;}
</style>
<g id="SFPuNY.tif_1_">
	<g id="XMLID_7121_">
		<path id="XMLID_7123_" class="st0" d="M262.2,284.6c-11.8,10.2-20,25.2-37.7,27.9c-14.2,2.1-28.2-4.2-35.9-16.8
			c-7.2-11.7-6.9-28.4,1.9-39.1c9.8-11.9,20.6-22.9,32.6-32.5c14.6-11.9,37-8.5,48.5,6.1c2.5,3.2,3.3,5.9-0.4,8.6
			c-0.8,0.6-1.3,1.4-2,2c-2.4,2.2-4.4,5.5-7.2,6.2c-3.6,0.9-3.6-4-5.6-6c-6.3-6.2-16.5-7.2-23.2-1c-9.2,8.5-18.1,17.3-26.6,26.5
			c-6.2,6.8-5.5,16.4,0.7,22.7c6.3,6.5,16.6,7.6,23,0.7c6.5-6.9,12.8-10.1,22.2-7c2.8,1,6.3,0.1,9.4,0.1
			C261.8,283.6,262,284.1,262.2,284.6z"/>
		<path id="XMLID_7122_" class="st0" d="M238.2,208.8c11.7-10.9,19.8-25.9,37.7-28.4c14.1-2,28.2,4.5,35.8,17.1
			c7.1,11.9,6.6,28.5-2.2,39.1c-9.7,11.7-20.5,22.5-32.2,32.1c-14.9,12.2-38.1,8.6-49.2-6.7c-2-2.8-2.5-4.9,0.3-7.3
			c2.7-2.4,5.2-5,7.7-7.6c2.2-2.2,3.4-1.8,5.2,0.9c7.2,11.2,18.6,12.4,28.2,3c7.5-7.3,14.8-14.7,22.2-22.1c8-8.1,8.4-18.1,1.1-25.3
			c-7.1-7-16.9-6.6-24.9,1.1c-1.4,1.3-2.8,2.6-4,4c-2.3,2.7-4.8,3.9-8.5,2.6C250,209.2,244.2,209.9,238.2,208.8z"/>
	</g>
</g>
</svg>
