<?xml version="1.0" encoding="utf-8"?>
<!-- Generator: Adobe Illustrator 19.0.0, SVG Export Plug-In . SVG Version: 6.00 Build 0)  -->
<svg version="1.1" id="Layer_1" xmlns="http://www.w3.org/2000/svg" xmlns:xlink="http://www.w3.org/1999/xlink" x="0px" y="0px"
	 viewBox="-170 345.5 500 500" style="enable-background:new -170 345.5 500 500;" xml:space="preserve">
<style type="text/css">
	.st0{fill:#DD2267;}
</style>
<g id="XMLID_917_">
	<path id="XMLID_933_" class="st0" d="M-7.8,581c0,4-0.9,7.3-2.6,10c-1.7,2.6-3.9,3.9-6.4,3.9c-4.1,0-7.6-1.3-10.4-3.9
		c-2.8-2.6-4.2-5.9-4.2-9.9c0-3.9,1.4-7.2,4.2-9.9c0.3-0.3,0.7-0.6,1-0.9l0.2-0.1l-0.2-0.4c-0.2-0.3-0.4-0.7-0.6-1l-0.2-0.3
		l-0.3,0.2c-0.4,0.4-0.8,0.7-1.2,1.1c-3.1,3.1-4.7,6.9-4.7,11.3c0,4.4,1.6,8.3,4.8,11.6c3.2,3.2,7.1,4.9,11.7,4.9
		c4.4,0,8.3-1.6,11.6-4.9c3.2-3.2,4.9-7.1,4.9-11.6v-83.8h-7.4V581z"/>
	<path id="XMLID_930_" class="st0" d="M14.4,587.8c6.4,5.8,15,9,23.5,9c3.4,0,6.9-0.5,10.1-1.5c11.5-3.6,20.7-13.6,23.3-25.4
		l-0.5-0.1c0,0,0,0,0,0l-5-0.9c0,0,0,0,0,0l-0.3,0l0,0v0l-0.3,0c-0.9,6.3-4.6,21.4-18.8,24.9c-5.7,1.4-12.3,0.5-18-2.7
		c-5-2.8-9.6-7.2-13.1-12.8L61.2,537l-0.2-0.2c-9-8.1-22.2-11-33.7-7.3C15.7,533.1,6.6,543.1,4,554.9
		C1.4,566.8,5.5,579.7,14.4,587.8z M12,547.1c2.8-7.7,7.7-12.9,14.6-15.4c4.8-1.8,9.9-1.9,14.9-0.4c5,1.4,9.5,4.2,13.3,8.3
		l-40.4,36.9c-1-2.1-1.7-3.8-2.1-5C9.3,563.1,9.2,554.9,12,547.1z"/>
	<path id="XMLID_926_" class="st0" d="M101.6,545v56.5h7.5V545c0-4.1-1.4-7.8-4.3-11c-2.8-3.1-6.3-4.7-10.2-4.7
		c-5.7,0-9.9,2.6-12.7,7.7v-6h-7.6l0.1,106.8c-6.7-8.7-16-13.1-27.5-13.1c-9.6,0-17.9,3.4-24.7,10.1c-6.9,6.7-10.3,14.9-10.3,24.5
		c0,9.4,3.5,17.6,10.3,24.4c6.8,6.8,15.2,10.2,24.7,10.2c9.7,0,18-3.4,24.8-10.2c6.8-6.8,10.2-15,10.2-24.4l0-116.1
		c0.5-3.4,2-6.3,4.4-8.5c2.4-2.2,5.2-3.3,8.4-3.3c1.8,0,3.4,1.3,4.8,4C100.9,538,101.6,541.3,101.6,545z M74.4,659.3
		c0,9-2.7,16.7-8.1,23.1c-5.3,6.3-11.9,9.5-19.5,9.5c-7.5,0-14-3.2-19.3-9.5c-5.4-6.3-8.1-14.1-8.1-23.1c0-9,2.7-16.7,8.1-23.1
		c5.3-6.3,11.8-9.5,19.3-9.5c7.6,0,14.1,3.2,19.5,9.5C71.6,642.6,74.4,650.4,74.4,659.3z"/>
	<path id="XMLID_923_" class="st0" d="M181.7,567.1c-7.7-7.7-17.2-11.5-28.1-11.5c-8.8,0-16.8,2.7-23.9,8.1
		c-1.7,1.2-3.2,1.9-4.5,1.9c-3.1,0-4.5-1.5-4.5-4.5c0-2.2,1-3.8,2.9-5.1c2-1.2,4.3-1.9,6.9-1.9c1,0,2.2,0.1,3.4,0.3
		c1.8,1.2,4,1.8,6.3,1.8c3.7,0,6.9-1.3,9.6-4c2.7-2.7,4-5.9,4-9.7v-2.9c1.9-0.2,4-0.9,6.1-2.1c1-0.6,2-1.4,2.8-2.2l0.2-0.2l-0.2-0.2
		c-0.6-0.7-1.2-1.5-1.8-2.2c-0.4-0.5-0.9-1.1-1.4-1.6c-0.2-0.2-0.3-0.4-0.5-0.6c0,0,0,0,0-0.1c-0.1-0.2-0.2-0.3-0.4-0.4l-0.1,0
		c-0.3,0-0.3,0.4-0.3,0.5c0,0.2-0.1,0.3-0.1,0.5c-0.1,0.3-0.2,0.7-0.3,1c-0.2,0.7-0.5,1.3-0.8,2c-1.1,2.2-2.4,3.4-4.1,3.7
		c-2.1-5.8-6.4-8.8-12.7-8.8c-3.8,0-7.1,1.3-9.7,4c-2.7,2.7-4,5.9-4,9.6c0,3.9,1.4,7.3,4.2,9.9c-0.4,0-0.8,0-1.2,0
		c-3.5,0-6.8,0.9-10.1,2.8c-3.8,2.1-5.8,4.7-5.8,7.9c0,4.1,2.4,6.3,7,6.4c3,0.1,6.2-1.1,9.5-3.6c7.3-5.5,15.2-8.3,23.4-8.3
		c8.9,0,16.5,3.7,22.7,11.1c6.2,7.3,9.4,16.3,9.4,26.7s-3.2,19.3-9.4,26.7c-6.2,7.3-13.9,11.1-22.7,11.1c-1.3,0-2.5-0.1-3.8-0.2v0
		l-0.2,0c-8.6-0.8-16.2-4.5-22.5-10.9c-7.3-7.3-11-16.1-11.1-26.4l0-0.3l-0.7,0.1c-0.4,0.1-0.7,0.1-1.1,0.2l-0.2,0l0,0.2
		c0.1,10.6,4,19.9,11.6,27.5c2.3,2.3,4.9,4.3,7.5,5.9l-14,27.4L107,632.1h-8.4l16.4,32.7l-13.5,26.8h2.2l12.3-24.6l12.4,24.4
		l0.1,0.1h8.4l-16.7-33l14.7-28.6c2.3,1.3,4.8,2.2,7.4,3v58.6h7.5v-57.2c1.2,0.1,2.5,0.2,3.8,0.2l0.2,0h0c10.8,0,20.1-3.9,27.8-11.5
		c7.7-7.7,11.6-17.1,11.6-28C193.3,584.2,189.4,574.7,181.7,567.1z M144.5,550.6c-1.2,2.3-2.7,3.5-4.2,3.5c-1.6,0-3-1.2-4.2-3.5
		c-1.3-2.4-1.9-5.1-1.9-8.3c0-3.1,0.6-5.9,1.9-8.2c1.2-2.2,2.7-3.4,4.2-3.4c1.6,0,3,1.1,4.2,3.4c1.3,2.3,1.9,5.1,1.9,8.2
		C146.4,545.5,145.8,548.3,144.5,550.6z"/>
	<rect id="XMLID_921_" x="87.8" y="632.3" class="st0" width="7.5" height="59.4"/>
	<path id="XMLID_919_" class="st0" d="M150.2,625.1c0-2.3-1.8-4.1-4.1-4.1c-2.3,0-4.1,1.8-4.1,4.1c0,2.3,1.8,4.1,4.1,4.1
		C148.3,629.2,150.2,627.4,150.2,625.1z"/>
	<path id="XMLID_918_" class="st0" d="M91.6,617.9c-2.3,0-4.1,1.8-4.1,4.1c0,2.3,1.8,4.1,4.1,4.1c2.3,0,4.1-1.8,4.1-4.1
		C95.7,619.7,93.9,617.9,91.6,617.9z"/>
</g>
</svg>
