<?xml version="1.0" encoding="utf-8"?>
<!-- Generator: Adobe Illustrator 19.0.0, SVG Export Plug-In . SVG Version: 6.00 Build 0)  -->
<svg version="1.1" id="Layer_1" xmlns="http://www.w3.org/2000/svg" xmlns:xlink="http://www.w3.org/1999/xlink" x="0px" y="0px"
	 viewBox="80.9 133.9 500 500" style="enable-background:new 80.9 133.9 500 500;" xml:space="preserve">
<style type="text/css">
	.st0{fill:#656565;}
</style>
<path id="XMLID_1_" class="st0" d="M329.7,345.9c-40.5,0-73.5,33-73.5,73.5s33,73.5,73.5,73.5s73.5-33,73.5-73.5
	S370.2,345.9,329.7,345.9z M329.7,358.4c14.5,0,27.8,5.1,38.3,13.6l-85.7,85.7c-8.5-10.5-13.6-23.8-13.6-38.3
	C268.7,385.8,296.1,358.4,329.7,358.4z M329.7,480.4c-14.6,0-28-5.2-38.5-13.8l85.7-85.7c8.6,10.5,13.8,23.9,13.8,38.5
	C390.7,453,363.3,480.4,329.7,480.4z"/>
</svg>
