<?xml version="1.0" encoding="UTF-8"?>
<!DOCTYPE svg PUBLIC "-//W3C//DTD SVG 1.1//EN" "http://www.w3.org/Graphics/SVG/1.1/DTD/svg11.dtd">
<!-- Creator: CorelDRAW X6 -->
<svg xmlns="http://www.w3.org/2000/svg" xml:space="preserve" width="11.6929in" height="16.1417in" version="1.1" style="shape-rendering:geometricPrecision; text-rendering:geometricPrecision; image-rendering:optimizeQuality; fill-rule:evenodd; clip-rule:evenodd"
viewBox="0 0 11693 16142"
 xmlns:xlink="http://www.w3.org/1999/xlink">
 <defs>
  <style type="text/css">
   <![CDATA[
    .str0 {stroke:black;stroke-width:3}
    .str1 {stroke:black;stroke-width:3}
    .fil1 {fill:none}
    .fil4 {fill:#FEFEFE}
    .fil0 {fill:black}
    .fil2 {fill:#DD2267}
    .fil3 {fill:#FEFEFE;fill-rule:nonzero}
   ]]>
  </style>
  <clipPath id="id0" style="clip-rule:nonzero">
   <rect x="22561" y="1577" width="1819" height="1819"/>
  </clipPath>
  <clipPath id="id1" style="clip-rule:nonzero">
   <rect x="20686" y="1994" width="2069" height="931"/>
  </clipPath>
  <clipPath id="id2" style="clip-rule:nonzero">
   <rect x="22561" y="-145" width="1819" height="1833"/>
  </clipPath>
  <clipPath id="id3" style="clip-rule:nonzero">
   <rect x="21102" y="3661" width="1611" height="931"/>
  </clipPath>
  <clipPath id="id4">
   <path d="M112616 45396l11693 0 0 -11693 -11693 0 0 11693z"/>
  </clipPath>
  <clipPath id="id5">
   <path d="M112616 45396l11693 0 0 -11693 -11693 0 0 11693z"/>
  </clipPath>
  <clipPath id="id6">
   <path d="M145027 34860l11693 0 0 -11693 -11693 0 0 11693z"/>
  </clipPath>
  <clipPath id="id7">
   <path d="M145027 34860l11693 0 0 -11693 -11693 0 0 11693z"/>
  </clipPath>
  <clipPath id="id8">
   <path d="M145027 34860l11693 0 0 -11693 -11693 0 0 11693z"/>
  </clipPath>
  <clipPath id="id9">
   <path d="M130211 18705l11693 0 0 -5806 -11693 0 0 5806z"/>
  </clipPath>
  <clipPath id="id10">
   <path d="M130211 18705l11693 0 0 -5806 -11693 0 0 5806z"/>
  </clipPath>
  <clipPath id="id11">
   <path d="M130211 18705l11693 0 0 -5806 -11693 0 0 5806z"/>
  </clipPath>
  <clipPath id="id12">
   <path d="M116905 27411l11693 0 0 -5262 -11693 0 0 5262z"/>
  </clipPath>
  <clipPath id="id13">
   <path d="M116905 27411l11693 0 0 -5262 -11693 0 0 5262z"/>
  </clipPath>
  <clipPath id="id14">
   <path d="M116905 27411l11693 0 0 -5262 -11693 0 0 5262z"/>
  </clipPath>
  <clipPath id="id15" style="clip-rule:nonzero">
   <rect x="20880" y="411" width="1875" height="931"/>
  </clipPath>
  <clipPath id="id16">
   <path d="M145026 37084l11693 0 0 -11693 -11693 0 0 11693z"/>
  </clipPath>
  <clipPath id="id17">
   <path d="M145026 37084l11693 0 0 -11693 -11693 0 0 11693z"/>
  </clipPath>
  <clipPath id="id18">
   <path d="M145026 37084l11693 0 0 -11693 -11693 0 0 11693z"/>
  </clipPath>
  <clipPath id="id19">
   <path d="M153161 42714l11693 0 0 -6757 -11693 0 0 6757z"/>
  </clipPath>
  <clipPath id="id20">
   <path d="M153161 42714l11693 0 0 -6757 -11693 0 0 6757z"/>
  </clipPath>
  <clipPath id="id21">
   <path d="M153161 42714l11693 0 0 -6757 -11693 0 0 6757z"/>
  </clipPath>
  <clipPath id="id22" style="clip-rule:nonzero">
   <rect x="22561" y="1577" width="1819" height="1819"/>
  </clipPath>
  <clipPath id="id23">
   <path d="M145027 34860l11693 0 0 -11693 -11693 0 0 11693z"/>
  </clipPath>
  <clipPath id="id24">
   <path d="M145027 34860l11693 0 0 -11693 -11693 0 0 11693z"/>
  </clipPath>
  <clipPath id="id25">
   <path d="M145027 1736l11693 0 0 -11693 -11693 0 0 11693z"/>
  </clipPath>
  <clipPath id="id26">
   <path d="M145027 1736l11693 0 0 -11693 -11693 0 0 11693z"/>
  </clipPath>
  <clipPath id="id27">
   <path d="M145026 3960l11693 0 0 -11693 -11693 0 0 11693z"/>
  </clipPath>
  <clipPath id="id28">
   <path d="M145026 3960l11693 0 0 -11693 -11693 0 0 11693z"/>
  </clipPath>
  <clipPath id="id29">
   <path d="M145026 3960l11693 0 0 -11693 -11693 0 0 11693z"/>
  </clipPath>
  <clipPath id="id30">
   <path d="M145026 49227l11693 0 0 -11693 -11693 0 0 11693z"/>
  </clipPath>
  <clipPath id="id31">
   <path d="M145026 49227l11693 0 0 -11693 -11693 0 0 11693z"/>
  </clipPath>
  <clipPath id="id32">
   <path d="M145026 49227l11693 0 0 -11693 -11693 0 0 11693z"/>
  </clipPath>
  <clipPath id="id33">
   <path d="M100336 9613l11693 0 0 -4584 -11693 0 0 4584z"/>
  </clipPath>
  <clipPath id="id34">
   <path d="M100336 9613l11693 0 0 -4584 -11693 0 0 4584z"/>
  </clipPath>
  <clipPath id="id35">
   <path d="M100336 9613l11693 0 0 -4584 -11693 0 0 4584z"/>
  </clipPath>
  <clipPath id="id36">
   <path d="M145027 13030l11693 0 0 -11783 -11693 0 0 11783z"/>
  </clipPath>
  <clipPath id="id37">
   <path d="M145027 13030l11693 0 0 -11783 -11693 0 0 11783z"/>
  </clipPath>
  <clipPath id="id38">
   <path d="M145027 13030l11693 0 0 -11783 -11693 0 0 11783z"/>
  </clipPath>
  <clipPath id="id39">
   <path d="M145026 37084l11693 0 0 -11693 -11693 0 0 11693z"/>
  </clipPath>
  <clipPath id="id40">
   <path d="M145026 37084l11693 0 0 -11693 -11693 0 0 11693z"/>
  </clipPath>
  <clipPath id="id41">
   <path d="M145026 37084l11693 0 0 -11693 -11693 0 0 11693z"/>
  </clipPath>
  <clipPath id="id42">
   <path d="M153162 38022l11693 0 0 -6757 -11693 0 0 6757z"/>
  </clipPath>
  <clipPath id="id43">
   <path d="M153162 38022l11693 0 0 -6757 -11693 0 0 6757z"/>
  </clipPath>
  <clipPath id="id44">
   <path d="M145027 1736l11693 0 0 -11693 -11693 0 0 11693z"/>
  </clipPath>
  <clipPath id="id45">
   <path d="M145027 1736l11693 0 0 -11693 -11693 0 0 11693z"/>
  </clipPath>
  <clipPath id="id46">
   <path d="M130212 13537l11693 0 0 -5806 -11693 0 0 5806z"/>
  </clipPath>
  <clipPath id="id47">
   <path d="M130212 13537l11693 0 0 -5806 -11693 0 0 5806z"/>
  </clipPath>
  <clipPath id="id48">
   <path d="M145027 34860l11693 0 0 -11693 -11693 0 0 11693z"/>
  </clipPath>
  <clipPath id="id49">
   <path d="M145027 34860l11693 0 0 -11693 -11693 0 0 11693z"/>
  </clipPath>
  <clipPath id="id50">
   <path d="M145027 34860l11693 0 0 -11693 -11693 0 0 11693z"/>
  </clipPath>
  <clipPath id="id51">
   <path d="M153161 42714l11693 0 0 -6757 -11693 0 0 6757z"/>
  </clipPath>
  <clipPath id="id52">
   <path d="M153161 42714l11693 0 0 -6757 -11693 0 0 6757z"/>
  </clipPath>
  <clipPath id="id53">
   <path d="M153161 42714l11693 0 0 -6757 -11693 0 0 6757z"/>
  </clipPath>
  <clipPath id="id54">
   <path d="M112616 45396l11693 0 0 -11693 -11693 0 0 11693z"/>
  </clipPath>
  <clipPath id="id55">
   <path d="M112616 45396l11693 0 0 -11693 -11693 0 0 11693z"/>
  </clipPath>
  <clipPath id="id56">
   <path d="M112616 45396l11693 0 0 -11693 -11693 0 0 11693z"/>
  </clipPath>
  <clipPath id="id57">
   <path d="M145027 47003l11693 0 0 -11693 -11693 0 0 11693z"/>
  </clipPath>
  <clipPath id="id58">
   <path d="M145027 47003l11693 0 0 -11693 -11693 0 0 11693z"/>
  </clipPath>
  <clipPath id="id59">
   <path d="M145027 47003l11693 0 0 -11693 -11693 0 0 11693z"/>
  </clipPath>
  <clipPath id="id60">
   <path d="M116905 27411l11693 0 0 -5262 -11693 0 0 5262z"/>
  </clipPath>
  <clipPath id="id61">
   <path d="M116905 27411l11693 0 0 -5262 -11693 0 0 5262z"/>
  </clipPath>
  <clipPath id="id62">
   <path d="M116905 27411l11693 0 0 -5262 -11693 0 0 5262z"/>
  </clipPath>
  <clipPath id="id63">
   <path d="M145027 24055l11693 0 0 -11693 -11693 0 0 11693z"/>
  </clipPath>
  <clipPath id="id64">
   <path d="M145027 24055l11693 0 0 -11693 -11693 0 0 11693z"/>
  </clipPath>
  <clipPath id="id65">
   <path d="M145027 24055l11693 0 0 -11693 -11693 0 0 11693z"/>
  </clipPath>
  <clipPath id="id66">
   <path d="M145026 49227l11693 0 0 -11693 -11693 0 0 11693z"/>
  </clipPath>
  <clipPath id="id67">
   <path d="M145026 49227l11693 0 0 -11693 -11693 0 0 11693z"/>
  </clipPath>
  <clipPath id="id68">
   <path d="M145026 49227l11693 0 0 -11693 -11693 0 0 11693z"/>
  </clipPath>
  <clipPath id="id69">
   <path d="M116906 21971l11693 0 0 -5262 -11693 0 0 5262z"/>
  </clipPath>
  <clipPath id="id70">
   <path d="M116906 21971l11693 0 0 -5262 -11693 0 0 5262z"/>
  </clipPath>
  <clipPath id="id71">
   <path d="M145027 13030l11693 0 0 -11783 -11693 0 0 11783z"/>
  </clipPath>
  <clipPath id="id72">
   <path d="M145027 13030l11693 0 0 -11783 -11693 0 0 11783z"/>
  </clipPath>
  <clipPath id="id73">
   <path d="M145026 26279l11693 0 0 -11693 -11693 0 0 11693z"/>
  </clipPath>
  <clipPath id="id74">
   <path d="M145026 26279l11693 0 0 -11693 -11693 0 0 11693z"/>
  </clipPath>
  <clipPath id="id75">
   <path d="M145026 26279l11693 0 0 -11693 -11693 0 0 11693z"/>
  </clipPath>
  <clipPath id="id76">
   <path d="M145027 1736l11693 0 0 -11693 -11693 0 0 11693z"/>
  </clipPath>
  <clipPath id="id77">
   <path d="M145027 1736l11693 0 0 -11693 -11693 0 0 11693z"/>
  </clipPath>
  <clipPath id="id78">
   <path d="M145027 1736l11693 0 0 -11693 -11693 0 0 11693z"/>
  </clipPath>
  <clipPath id="id79">
   <path d="M145026 3960l11693 0 0 -11693 -11693 0 0 11693z"/>
  </clipPath>
  <clipPath id="id80">
   <path d="M145026 3960l11693 0 0 -11693 -11693 0 0 11693z"/>
  </clipPath>
  <clipPath id="id81">
   <path d="M145026 3960l11693 0 0 -11693 -11693 0 0 11693z"/>
  </clipPath>
  <clipPath id="id82">
   <path d="M116906 21971l11693 0 0 -5262 -11693 0 0 5262z"/>
  </clipPath>
  <clipPath id="id83">
   <path d="M116906 21971l11693 0 0 -5262 -11693 0 0 5262z"/>
  </clipPath>
  <clipPath id="id84">
   <path d="M116906 21971l11693 0 0 -5262 -11693 0 0 5262z"/>
  </clipPath>
  <clipPath id="id85">
   <path d="M145026 26279l11693 0 0 -11693 -11693 0 0 11693z"/>
  </clipPath>
  <clipPath id="id86">
   <path d="M145026 26279l11693 0 0 -11693 -11693 0 0 11693z"/>
  </clipPath>
  <clipPath id="id87">
   <path d="M145026 26279l11693 0 0 -11693 -11693 0 0 11693z"/>
  </clipPath>
  <clipPath id="id88" style="clip-rule:nonzero">
   <rect x="22561" y="5147" width="1819" height="1819"/>
  </clipPath>
  <clipPath id="id89" style="clip-rule:nonzero">
   <rect x="21102" y="3661" width="1611" height="931"/>
  </clipPath>
  <clipPath id="id90">
   <path d="M100336 9613l11693 0 0 -4584 -11693 0 0 4584z"/>
  </clipPath>
  <clipPath id="id91">
   <path d="M100336 9613l11693 0 0 -4584 -11693 0 0 4584z"/>
  </clipPath>
  <clipPath id="id92">
   <path d="M100336 9613l11693 0 0 -4584 -11693 0 0 4584z"/>
  </clipPath>
  <clipPath id="id93">
   <path d="M112615 47620l11693 0 0 -11693 -11693 0 0 11693z"/>
  </clipPath>
  <clipPath id="id94">
   <path d="M112615 47620l11693 0 0 -11693 -11693 0 0 11693z"/>
  </clipPath>
  <clipPath id="id95">
   <path d="M112615 47620l11693 0 0 -11693 -11693 0 0 11693z"/>
  </clipPath>
  <clipPath id="id96">
   <path d="M116906 21971l11693 0 0 -5262 -11693 0 0 5262z"/>
  </clipPath>
  <clipPath id="id97">
   <path d="M116906 21971l11693 0 0 -5262 -11693 0 0 5262z"/>
  </clipPath>
  <clipPath id="id98">
   <path d="M112616 45396l11693 0 0 -11693 -11693 0 0 11693z"/>
  </clipPath>
  <clipPath id="id99">
   <path d="M112616 45396l11693 0 0 -11693 -11693 0 0 11693z"/>
  </clipPath>
  <clipPath id="id100">
   <path d="M112616 45396l11693 0 0 -11693 -11693 0 0 11693z"/>
  </clipPath>
  <clipPath id="id101">
   <path d="M145026 15209l11693 0 0 -11783 -11693 0 0 11783z"/>
  </clipPath>
  <clipPath id="id102">
   <path d="M145026 15209l11693 0 0 -11783 -11693 0 0 11783z"/>
  </clipPath>
  <clipPath id="id103">
   <path d="M145026 15209l11693 0 0 -11783 -11693 0 0 11783z"/>
  </clipPath>
  <clipPath id="id104" style="clip-rule:nonzero">
   <rect x="20686" y="1994" width="2069" height="931"/>
  </clipPath>
  <clipPath id="id105">
   <path d="M153162 38022l11693 0 0 -6757 -11693 0 0 6757z"/>
  </clipPath>
  <clipPath id="id106">
   <path d="M153162 38022l11693 0 0 -6757 -11693 0 0 6757z"/>
  </clipPath>
  <clipPath id="id107">
   <path d="M145027 24055l11693 0 0 -11693 -11693 0 0 11693z"/>
  </clipPath>
  <clipPath id="id108">
   <path d="M145027 24055l11693 0 0 -11693 -11693 0 0 11693z"/>
  </clipPath>
  <clipPath id="id109">
   <path d="M145027 24055l11693 0 0 -11693 -11693 0 0 11693z"/>
  </clipPath>
  <clipPath id="id110">
   <path d="M100337 3834l11693 0 0 -4584 -11693 0 0 4584z"/>
  </clipPath>
  <clipPath id="id111">
   <path d="M100337 3834l11693 0 0 -4584 -11693 0 0 4584z"/>
  </clipPath>
  <clipPath id="id112">
   <path d="M100337 3834l11693 0 0 -4584 -11693 0 0 4584z"/>
  </clipPath>
  <clipPath id="id113">
   <path d="M153162 38022l11693 0 0 -6757 -11693 0 0 6757z"/>
  </clipPath>
  <clipPath id="id114">
   <path d="M164855 38014l0 -6750 -11693 0 0 6750 11693 0z"/>
  </clipPath>
  <clipPath id="id115">
   <path d="M153162 38022l11693 0 0 -6757 -11693 0 0 6757z"/>
  </clipPath>
  <clipPath id="id116" style="clip-rule:nonzero">
   <rect x="20380" y="-1326" width="2375" height="931"/>
  </clipPath>
  <clipPath id="id117" style="clip-rule:nonzero">
   <rect x="20880" y="411" width="1875" height="931"/>
  </clipPath>
  <clipPath id="id118" style="clip-rule:nonzero">
   <rect x="22561" y="5147" width="1819" height="1819"/>
  </clipPath>
  <clipPath id="id119" style="clip-rule:nonzero">
   <rect x="17519" y="4897" width="1819" height="1819"/>
  </clipPath>
  <clipPath id="id120">
   <path d="M145027 1736l11693 0 0 -11693 -11693 0 0 11693z"/>
  </clipPath>
  <clipPath id="id121">
   <path d="M145027 1736l11693 0 0 -11693 -11693 0 0 11693z"/>
  </clipPath>
  <clipPath id="id122">
   <path d="M145027 1736l11693 0 0 -11693 -11693 0 0 11693z"/>
  </clipPath>
  <clipPath id="id123" style="clip-rule:nonzero">
   <rect x="17519" y="4897" width="1819" height="1819"/>
  </clipPath>
  <clipPath id="id124">
   <path d="M100337 3834l11693 0 0 -4584 -11693 0 0 4584z"/>
  </clipPath>
  <clipPath id="id125">
   <path d="M100337 3834l11693 0 0 -4584 -11693 0 0 4584z"/>
  </clipPath>
  <clipPath id="id126">
   <path d="M145027 24055l11693 0 0 -11693 -11693 0 0 11693z"/>
  </clipPath>
  <clipPath id="id127">
   <path d="M145027 24055l11693 0 0 -11693 -11693 0 0 11693z"/>
  </clipPath>
  <clipPath id="id128">
   <path d="M145027 47003l11693 0 0 -11693 -11693 0 0 11693z"/>
  </clipPath>
  <clipPath id="id129">
   <path d="M145027 47003l11693 0 0 -11693 -11693 0 0 11693z"/>
  </clipPath>
  <clipPath id="id130">
   <path d="M145027 24055l11693 0 0 -11693 -11693 0 0 11693z"/>
  </clipPath>
  <clipPath id="id131">
   <path d="M145027 24055l11693 0 0 -11693 -11693 0 0 11693z"/>
  </clipPath>
  <clipPath id="id132">
   <path d="M100337 3834l11693 0 0 -4584 -11693 0 0 4584z"/>
  </clipPath>
  <clipPath id="id133">
   <path d="M100337 3834l11693 0 0 -4584 -11693 0 0 4584z"/>
  </clipPath>
  <clipPath id="id134">
   <path d="M112616 45396l11693 0 0 -11693 -11693 0 0 11693z"/>
  </clipPath>
  <clipPath id="id135">
   <path d="M112616 45396l11693 0 0 -11693 -11693 0 0 11693z"/>
  </clipPath>
  <clipPath id="id136" style="clip-rule:nonzero">
   <rect x="22561" y="-1895" width="1819" height="1819"/>
  </clipPath>
  <clipPath id="id137">
   <path d="M130212 13537l11693 0 0 -5806 -11693 0 0 5806z"/>
  </clipPath>
  <clipPath id="id138">
   <path d="M130212 13537l11693 0 0 -5806 -11693 0 0 5806z"/>
  </clipPath>
  <clipPath id="id139">
   <path d="M145027 47003l11693 0 0 -11693 -11693 0 0 11693z"/>
  </clipPath>
  <clipPath id="id140">
   <path d="M145027 47003l11693 0 0 -11693 -11693 0 0 11693z"/>
  </clipPath>
  <clipPath id="id141">
   <path d="M145027 47003l11693 0 0 -11693 -11693 0 0 11693z"/>
  </clipPath>
  <clipPath id="id142" style="clip-rule:nonzero">
   <rect x="22561" y="-145" width="1819" height="1833"/>
  </clipPath>
  <clipPath id="id143" style="clip-rule:nonzero">
   <rect x="22561" y="3258" width="1819" height="1819"/>
  </clipPath>
  <clipPath id="id144">
   <path d="M145027 34860l11693 0 0 -11693 -11693 0 0 11693z"/>
  </clipPath>
  <clipPath id="id145">
   <path d="M145027 34860l11693 0 0 -11693 -11693 0 0 11693z"/>
  </clipPath>
  <clipPath id="id146">
   <path d="M130212 13537l11693 0 0 -5806 -11693 0 0 5806z"/>
  </clipPath>
  <clipPath id="id147">
   <path d="M141905 13531l0 -5800 -11693 0 0 5800 11693 0z"/>
  </clipPath>
  <clipPath id="id148">
   <path d="M130212 13537l11693 0 0 -5806 -11693 0 0 5806z"/>
  </clipPath>
  <clipPath id="id149">
   <path d="M130212 13537l11693 0 0 -5806 -11693 0 0 5806z"/>
  </clipPath>
  <clipPath id="id150">
   <path d="M141905 13531l0 -5800 -11693 0 0 5800 11693 0z"/>
  </clipPath>
  <clipPath id="id151">
   <path d="M130212 13537l11693 0 0 -5806 -11693 0 0 5806z"/>
  </clipPath>
  <clipPath id="id152">
   <path d="M153162 38022l11693 0 0 -6757 -11693 0 0 6757z"/>
  </clipPath>
  <clipPath id="id153">
   <path d="M164855 38014l0 -6750 -11693 0 0 6750 11693 0z"/>
  </clipPath>
  <clipPath id="id154">
   <path d="M153162 38022l11693 0 0 -6757 -11693 0 0 6757z"/>
  </clipPath>
  <clipPath id="id155" style="clip-rule:nonzero">
   <rect x="22561" y="3258" width="1819" height="1819"/>
  </clipPath>
  <clipPath id="id156" style="clip-rule:nonzero">
   <rect x="20380" y="-1326" width="2375" height="931"/>
  </clipPath>
  <clipPath id="id157">
   <path d="M145027 47003l11693 0 0 -11693 -11693 0 0 11693z"/>
  </clipPath>
  <clipPath id="id158">
   <path d="M145027 47003l11693 0 0 -11693 -11693 0 0 11693z"/>
  </clipPath>
  <clipPath id="id159">
   <path d="M100337 3834l11693 0 0 -4584 -11693 0 0 4584z"/>
  </clipPath>
  <clipPath id="id160">
   <path d="M100337 3834l11693 0 0 -4584 -11693 0 0 4584z"/>
  </clipPath>
  <clipPath id="id161">
   <path d="M100337 3834l11693 0 0 -4584 -11693 0 0 4584z"/>
  </clipPath>
  <clipPath id="id162" style="clip-rule:nonzero">
   <rect x="22561" y="-1895" width="1819" height="1819"/>
  </clipPath>
  <clipPath id="id163">
   <path d="M145027 13030l11693 0 0 -11783 -11693 0 0 11783z"/>
  </clipPath>
  <clipPath id="id164">
   <path d="M145027 13030l11693 0 0 -11783 -11693 0 0 11783z"/>
  </clipPath>
  <clipPath id="id165">
   <path d="M130211 18705l11693 0 0 -5806 -11693 0 0 5806z"/>
  </clipPath>
  <clipPath id="id166">
   <path d="M130211 18705l11693 0 0 -5806 -11693 0 0 5806z"/>
  </clipPath>
  <clipPath id="id167">
   <path d="M130211 18705l11693 0 0 -5806 -11693 0 0 5806z"/>
  </clipPath>
  <clipPath id="id168">
   <path d="M145026 15209l11693 0 0 -11783 -11693 0 0 11783z"/>
  </clipPath>
  <clipPath id="id169">
   <path d="M145026 15209l11693 0 0 -11783 -11693 0 0 11783z"/>
  </clipPath>
  <clipPath id="id170">
   <path d="M145026 15209l11693 0 0 -11783 -11693 0 0 11783z"/>
  </clipPath>
  <clipPath id="id171">
   <path d="M145027 13030l11693 0 0 -11783 -11693 0 0 11783z"/>
  </clipPath>
  <clipPath id="id172">
   <path d="M145027 13030l11693 0 0 -11783 -11693 0 0 11783z"/>
  </clipPath>
  <clipPath id="id173">
   <path d="M145027 13030l11693 0 0 -11783 -11693 0 0 11783z"/>
  </clipPath>
  <clipPath id="id174">
   <path d="M112615 47620l11693 0 0 -11693 -11693 0 0 11693z"/>
  </clipPath>
  <clipPath id="id175">
   <path d="M112615 47620l11693 0 0 -11693 -11693 0 0 11693z"/>
  </clipPath>
  <clipPath id="id176">
   <path d="M112615 47620l11693 0 0 -11693 -11693 0 0 11693z"/>
  </clipPath>
  <clipPath id="id177">
   <path d="M116906 21971l11693 0 0 -5262 -11693 0 0 5262z"/>
  </clipPath>
  <clipPath id="id178">
   <path d="M116906 21971l11693 0 0 -5262 -11693 0 0 5262z"/>
  </clipPath>
  <clipPath id="id179">
   <path d="M116906 21971l11693 0 0 -5262 -11693 0 0 5262z"/>
  </clipPath>
 </defs>
<symbol id="Fm4-202-0" viewBox="22561 1577 1819 1819">
 <g style="clip-path:url(#id0)">
  <image x="22561" y="1577" width="1820" height="1820" xlink:href="shopink_Images\shopink_ImgID1.png"/>
 </g>
</symbol>
<symbol id="Fm5-203-0" viewBox="20686 1994 2069 931">
 <g style="clip-path:url(#id1)">
  <image x="20686" y="1994" width="2070" height="931" xlink:href="shopink_Images\shopink_ImgID2.png"/>
 </g>
</symbol>
<symbol id="Fm6-204-0" viewBox="22561 -145 1819 1833">
 <g style="clip-path:url(#id2)">
  <image x="22561" y="-146" width="1820" height="1834" xlink:href="shopink_Images\shopink_ImgID3.png"/>
 </g>
</symbol>
<symbol id="Symbol7" viewBox="21102 3661 1611 931">
 <g style="clip-path:url(#id3)">
  <image x="21102" y="3660" width="1612" height="931" xlink:href="shopink_Images\shopink_ImgID4.png"/>
 </g>
</symbol>
<symbol id="Symbol17" viewBox="112616 33703 11693 11693">
 <polygon class="fil0" points="112616,45396 124309,45396 124309,33703 112616,33703 "/>
 <g style="clip-path:url(#id4)">
 </g>
 <polygon id="1" class="fil1" points="112616,45396 124309,45396 124309,33703 112616,33703 "/>
 <g style="clip-path:url(#id5)">
  <path id="2" class="fil1 str0" d="M112616 33703l11693 11693m0 -11693l-11693 11693"/>
 </g>
</symbol>
<symbol id="Symbol53" viewBox="145027 23168 11693 11693">
 <polygon class="fil0" points="145027,34860 156720,34860 156720,23168 145027,23168 "/>
 <g style="clip-path:url(#id6)">
 </g>
 <g style="clip-path:url(#id7)">
  <image x="145027" y="23161" width="11699" height="11699" xlink:href="shopink_Images\shopink_ImgID5.png"/>
 </g>
 <g style="clip-path:url(#id8)">
 </g>
 <polygon class="fil1" points="145027,34860 156720,34860 156720,23168 145027,23168 "/>
</symbol>
<symbol id="Symbol55" viewBox="130211 12899 11693 5806">
 <polygon class="fil0" points="130211,18705 141904,18705 141904,12899 130211,12899 "/>
 <polygon class="fil0" points="130211,18705 141904,18705 141904,12899 130211,12899 "/>
 <g style="clip-path:url(#id9)">
 </g>
 <polygon id="1" class="fil1" points="130211,18705 141904,18705 141904,12899 130211,12899 "/>
 <g style="clip-path:url(#id10)">
  <path id="2" class="fil1 str0" d="M130211 12899l11693 5806m0 -5806l-11693 5806"/>
 </g>
 <polygon id="_1" class="fil1" points="130211,18705 141904,18705 141904,12899 130211,12899 "/>
 <polygon class="fil0" points="130211,18705 141904,18705 141904,12899 130211,12899 "/>
 <g style="clip-path:url(#id11)">
  <path id="1" class="fil1 str1" d="M130211 12899l11693 5806m0 -5806l-11693 5806"/>
 </g>
 <polygon class="fil1" points="130211,18705 141904,18705 141904,12899 130211,12899 "/>
</symbol>
<symbol id="Symbol57" viewBox="116905 22149 11693 5262">
 <polygon class="fil0" points="116905,27411 128598,27411 128598,22149 116905,22149 "/>
 <polygon class="fil0" points="116905,27411 128598,27411 128598,22149 116905,22149 "/>
 <g style="clip-path:url(#id12)">
 </g>
 <polygon id="1" class="fil1" points="116905,27411 128598,27411 128598,22149 116905,22149 "/>
 <g style="clip-path:url(#id13)">
  <path id="2" class="fil1 str0" d="M116905 22149l11693 5262m0 -5262l-11693 5262"/>
 </g>
 <polygon id="_1_0" class="fil1" points="116905,27411 128598,27411 128598,22149 116905,22149 "/>
 <polygon class="fil0" points="116905,27411 128598,27411 128598,22149 116905,22149 "/>
 <g style="clip-path:url(#id14)">
  <path id="1" class="fil1 str1" d="M116905 22149l11693 5262m0 -5262l-11693 5262"/>
 </g>
 <polygon class="fil1" points="116905,27411 128598,27411 128598,22149 116905,22149 "/>
</symbol>
<symbol id="Fm9-207-0" viewBox="20880 411 1875 931">
 <g style="clip-path:url(#id15)">
  <image x="20880" y="410" width="1876" height="931" xlink:href="shopink_Images\shopink_ImgID6.png"/>
 </g>
</symbol>
<symbol id="Symbol48" viewBox="145026 25391 11693 11693">
 <polygon class="fil0" points="145026,37084 156719,37084 156719,25392 145026,25392 "/>
 <polygon class="fil0" points="145026,37084 156719,37084 156719,25391 145026,25391 "/>
 <g style="clip-path:url(#id16)">
 </g>
 <polygon id="1" class="fil1" points="145026,37084 156719,37084 156719,25391 145026,25391 "/>
 <g style="clip-path:url(#id17)">
  <path id="2" class="fil1 str0" d="M145026 25391l11693 11693m0 -11693l-11693 11693"/>
 </g>
 <polygon id="_1_2" class="fil1" points="145026,37084 156719,37084 156719,25392 145026,25392 "/>
 <polygon class="fil0" points="145026,37084 156719,37084 156719,25391 145026,25391 "/>
 <g style="clip-path:url(#id18)">
  <path id="1" class="fil1 str1" d="M145026 25392l11693 11693m0 -11693l-11693 11693"/>
 </g>
 <polygon class="fil1" points="145026,37084 156719,37084 156719,25391 145026,25391 "/>
</symbol>
<symbol id="Symbol63" viewBox="153161 35956 11693 6758">
 <polygon class="fil0" points="153161,42714 164854,42714 164854,35956 153161,35956 "/>
 <polygon class="fil0" points="153161,42714 164854,42714 164854,35957 153161,35957 "/>
 <g style="clip-path:url(#id19)">
 </g>
 <polygon id="1" class="fil1" points="153161,42714 164854,42714 164854,35957 153161,35957 "/>
 <g style="clip-path:url(#id20)">
  <path id="2" class="fil1 str0" d="M153161 35957l11693 6757m0 -6757l-11693 6757"/>
 </g>
 <polygon id="_1_4" class="fil1" points="153161,42714 164854,42714 164854,35956 153161,35956 "/>
 <polygon class="fil0" points="153161,42714 164854,42714 164854,35957 153161,35957 "/>
 <g style="clip-path:url(#id21)">
  <path id="1" class="fil1 str1" d="M153161 35956l11693 6757m0 -6757l-11693 6757"/>
 </g>
 <polygon class="fil1" points="153161,42714 164854,42714 164854,35957 153161,35957 "/>
</symbol>
<symbol id="Symbol6" viewBox="22561 1577 1819 1819">
 <g style="clip-path:url(#id22)">
  <image x="22561" y="1577" width="1820" height="1820" xlink:href="shopink_Images\shopink_ImgID7.png"/>
 </g>
</symbol>
<symbol id="Symbol18" viewBox="145027 23168 11693 11693">
 <polygon class="fil0" points="145027,34860 156720,34860 156720,23168 145027,23168 "/>
 <g style="clip-path:url(#id23)">
 </g>
 <polygon id="1" class="fil1" points="145027,34860 156720,34860 156720,23168 145027,23168 "/>
 <g style="clip-path:url(#id24)">
  <path id="2" class="fil1 str0" d="M145027 23168l11693 11693m0 -11693l-11693 11693"/>
 </g>
</symbol>
<symbol id="Symbol23" viewBox="145027 -9957 11693 11693">
 <polygon class="fil0" points="145027,1736 156720,1736 156720,-9957 145027,-9957 "/>
 <g style="clip-path:url(#id25)">
 </g>
 <polygon id="1" class="fil1" points="145027,1736 156720,1736 156720,-9957 145027,-9957 "/>
 <g style="clip-path:url(#id26)">
  <path id="2" class="fil1 str0" d="M145027 -9957l11693 11693m0 -11693l-11693 11693"/>
 </g>
</symbol>
<symbol id="Symbol34" viewBox="145026 -7733 11693 11693">
 <polygon class="fil0" points="145026,3960 156719,3960 156719,-7733 145026,-7733 "/>
 <polygon class="fil0" points="145026,3960 156719,3960 156719,-7733 145026,-7733 "/>
 <g style="clip-path:url(#id27)">
 </g>
 <polygon id="1" class="fil1" points="145026,3960 156719,3960 156719,-7733 145026,-7733 "/>
 <g style="clip-path:url(#id28)">
  <path id="2" class="fil1 str0" d="M145026 -7733l11693 11693m0 -11693l-11693 11693"/>
 </g>
 <polygon id="_1_6" class="fil1" points="145026,3960 156719,3960 156719,-7733 145026,-7733 "/>
 <polygon class="fil0" points="145026,3960 156719,3960 156719,-7733 145026,-7733 "/>
 <g style="clip-path:url(#id29)">
  <path id="1" class="fil1 str1" d="M145026 -7733l11693 11693m0 -11693l-11693 11693"/>
 </g>
 <polygon class="fil1" points="145026,3960 156719,3960 156719,-7733 145026,-7733 "/>
</symbol>
<symbol id="Symbol35" viewBox="145026 37534 11693 11693">
 <polygon class="fil0" points="145026,49227 156719,49227 156719,37534 145026,37534 "/>
 <polygon class="fil0" points="145026,49227 156719,49227 156719,37534 145026,37534 "/>
 <g style="clip-path:url(#id30)">
 </g>
 <polygon id="1" class="fil1" points="145026,49227 156719,49227 156719,37534 145026,37534 "/>
 <g style="clip-path:url(#id31)">
  <path id="2" class="fil1 str0" d="M145026 37534l11693 11693m0 -11693l-11693 11693"/>
 </g>
 <polygon id="_1_8" class="fil1" points="145026,49227 156719,49227 156719,37534 145026,37534 "/>
 <polygon class="fil0" points="145026,49227 156719,49227 156719,37534 145026,37534 "/>
 <g style="clip-path:url(#id32)">
  <path id="1" class="fil1 str1" d="M145026 37534l11693 11693m0 -11693l-11693 11693"/>
 </g>
 <polygon class="fil1" points="145026,49227 156719,49227 156719,37534 145026,37534 "/>
</symbol>
<symbol id="Symbol50" viewBox="100336 5029 11693 4584">
 <polygon class="fil0" points="100336,9613 112029,9613 112029,5030 100336,5030 "/>
 <polygon class="fil0" points="100336,9613 112029,9613 112029,5029 100336,5029 "/>
 <g style="clip-path:url(#id33)">
 </g>
 <polygon id="1" class="fil1" points="100336,9613 112029,9613 112029,5029 100336,5029 "/>
 <g style="clip-path:url(#id34)">
  <path id="2" class="fil1 str0" d="M100336 5029l11693 4584m0 -4584l-11693 4584"/>
 </g>
 <polygon id="_1_10" class="fil1" points="100336,9613 112029,9613 112029,5030 100336,5030 "/>
 <polygon class="fil0" points="100336,9613 112029,9613 112029,5029 100336,5029 "/>
 <g style="clip-path:url(#id35)">
  <path id="1" class="fil1 str1" d="M100336 5030l11693 4584m0 -4584l-11693 4584"/>
 </g>
 <polygon class="fil1" points="100336,9613 112029,9613 112029,5029 100336,5029 "/>
</symbol>
<symbol id="Symbol56" viewBox="145027 1247 11693 11783">
 <polygon class="fil0" points="145027,13030 156720,13030 156720,1247 145027,1247 "/>
 <g style="clip-path:url(#id36)">
 </g>
 <g style="clip-path:url(#id37)">
  <image x="145027" y="1241" width="11699" height="11789" xlink:href="shopink_Images\shopink_ImgID8.png"/>
 </g>
 <g style="clip-path:url(#id38)">
 </g>
 <polygon class="fil1" points="145027,13030 156720,13030 156720,1247 145027,1247 "/>
</symbol>
<symbol id="Symbol60" viewBox="145026 25391 11693 11693">
 <polygon class="fil0" points="145026,37084 156719,37084 156719,25392 145026,25392 "/>
 <polygon class="fil0" points="145026,37084 156719,37084 156719,25391 145026,25391 "/>
 <g style="clip-path:url(#id39)">
 </g>
 <polygon id="1" class="fil1" points="145026,37084 156719,37084 156719,25391 145026,25391 "/>
 <g style="clip-path:url(#id40)">
  <path id="2" class="fil1 str0" d="M145026 25391l11693 11693m0 -11693l-11693 11693"/>
 </g>
 <polygon id="_1_12" class="fil1" points="145026,37084 156719,37084 156719,25392 145026,25392 "/>
 <polygon class="fil0" points="145026,37084 156719,37084 156719,25391 145026,25391 "/>
 <g style="clip-path:url(#id41)">
  <path id="1" class="fil1 str1" d="M145026 25392l11693 11693m0 -11693l-11693 11693"/>
 </g>
 <polygon class="fil1" points="145026,37084 156719,37084 156719,25391 145026,25391 "/>
</symbol>
<symbol id="Symbol11" viewBox="153162 31264 11693 6757">
 <polygon class="fil0" points="153162,38022 164855,38022 164855,31264 153162,31264 "/>
 <g style="clip-path:url(#id42)">
 </g>
 <polygon id="1" class="fil1" points="153162,38022 164855,38022 164855,31264 153162,31264 "/>
 <g style="clip-path:url(#id43)">
  <path id="2" class="fil1 str0" d="M153162 31264l11693 6757m0 -6757l-11693 6757"/>
 </g>
</symbol>
<symbol id="Symbol19" viewBox="145027 -9957 11693 11693">
 <polygon class="fil0" points="145027,1736 156720,1736 156720,-9957 145027,-9957 "/>
 <g style="clip-path:url(#id44)">
 </g>
 <polygon id="1" class="fil1" points="145027,1736 156720,1736 156720,-9957 145027,-9957 "/>
 <g style="clip-path:url(#id45)">
  <path id="2" class="fil1 str0" d="M145027 -9957l11693 11693m0 -11693l-11693 11693"/>
 </g>
</symbol>
<symbol id="Symbol22" viewBox="130212 7731 11693 5806">
 <polygon class="fil0" points="130212,13537 141905,13537 141905,7731 130212,7731 "/>
 <g style="clip-path:url(#id46)">
 </g>
 <polygon id="1" class="fil1" points="130212,13537 141905,13537 141905,7731 130212,7731 "/>
 <g style="clip-path:url(#id47)">
  <path id="2" class="fil1 str0" d="M130212 7731l11693 5806m0 -5806l-11693 5806"/>
 </g>
</symbol>
<symbol id="Symbol31" viewBox="145027 23168 11693 11693">
 <polygon class="fil0" points="145027,34860 156720,34860 156720,23168 145027,23168 "/>
 <g style="clip-path:url(#id48)">
 </g>
 <g style="clip-path:url(#id49)">
  <image x="145027" y="23161" width="11699" height="11699" xlink:href="shopink_Images\shopink_ImgID9.png"/>
 </g>
 <g style="clip-path:url(#id50)">
 </g>
 <polygon class="fil1" points="145027,34860 156720,34860 156720,23168 145027,23168 "/>
</symbol>
<symbol id="Symbol36" viewBox="153161 35956 11693 6758">
 <polygon class="fil0" points="153161,42714 164854,42714 164854,35956 153161,35956 "/>
 <polygon class="fil0" points="153161,42714 164854,42714 164854,35957 153161,35957 "/>
 <g style="clip-path:url(#id51)">
 </g>
 <polygon id="1" class="fil1" points="153161,42714 164854,42714 164854,35957 153161,35957 "/>
 <g style="clip-path:url(#id52)">
  <path id="2" class="fil1 str0" d="M153161 35957l11693 6757m0 -6757l-11693 6757"/>
 </g>
 <polygon id="_1_14" class="fil1" points="153161,42714 164854,42714 164854,35956 153161,35956 "/>
 <polygon class="fil0" points="153161,42714 164854,42714 164854,35957 153161,35957 "/>
 <g style="clip-path:url(#id53)">
  <path id="1" class="fil1 str1" d="M153161 35956l11693 6757m0 -6757l-11693 6757"/>
 </g>
 <polygon class="fil1" points="153161,42714 164854,42714 164854,35957 153161,35957 "/>
</symbol>
<symbol id="Symbol44" viewBox="112616 33703 11693 11693">
 <polygon class="fil0" points="112616,45396 124309,45396 124309,33703 112616,33703 "/>
 <g style="clip-path:url(#id54)">
 </g>
 <g style="clip-path:url(#id55)">
  <image x="112616" y="33697" width="11699" height="11699" xlink:href="shopink_Images\shopink_ImgID10.png"/>
 </g>
 <g style="clip-path:url(#id56)">
 </g>
 <polygon class="fil1" points="112616,45396 124309,45396 124309,33703 112616,33703 "/>
</symbol>
<symbol id="Symbol67" viewBox="145027 35310 11693 11693">
 <polygon class="fil0" points="145027,47003 156720,47003 156720,35310 145027,35310 "/>
 <g style="clip-path:url(#id57)">
 </g>
 <g style="clip-path:url(#id58)">
  <image x="145027" y="35304" width="11699" height="11699" xlink:href="shopink_Images\shopink_ImgID11.png"/>
 </g>
 <g style="clip-path:url(#id59)">
 </g>
 <polygon class="fil1" points="145027,47003 156720,47003 156720,35310 145027,35310 "/>
</symbol>
<symbol id="Symbol69" viewBox="116905 22149 11693 5262">
 <polygon class="fil0" points="116905,27411 128598,27411 128598,22149 116905,22149 "/>
 <polygon class="fil0" points="116905,27411 128598,27411 128598,22149 116905,22149 "/>
 <g style="clip-path:url(#id60)">
 </g>
 <polygon id="1" class="fil1" points="116905,27411 128598,27411 128598,22149 116905,22149 "/>
 <g style="clip-path:url(#id61)">
  <path id="2" class="fil1 str0" d="M116905 22149l11693 5262m0 -5262l-11693 5262"/>
 </g>
 <polygon id="_1_16" class="fil1" points="116905,27411 128598,27411 128598,22149 116905,22149 "/>
 <polygon class="fil0" points="116905,27411 128598,27411 128598,22149 116905,22149 "/>
 <g style="clip-path:url(#id62)">
  <path id="1" class="fil1 str1" d="M116905 22149l11693 5262m0 -5262l-11693 5262"/>
 </g>
 <polygon class="fil1" points="116905,27411 128598,27411 128598,22149 116905,22149 "/>
</symbol>
<symbol id="Symbol32" viewBox="145027 12362 11693 11693">
 <polygon class="fil0" points="145027,24055 156720,24055 156720,12362 145027,12362 "/>
 <g style="clip-path:url(#id63)">
 </g>
 <g style="clip-path:url(#id64)">
  <image x="145027" y="12362" width="11699" height="11699" xlink:href="shopink_Images\shopink_ImgID12.png"/>
 </g>
 <g style="clip-path:url(#id65)">
 </g>
 <polygon class="fil1" points="145027,24055 156720,24055 156720,12362 145027,12362 "/>
</symbol>
<symbol id="Symbol33" viewBox="145026 37534 11693 11693">
 <polygon class="fil0" points="145026,49227 156719,49227 156719,37534 145026,37534 "/>
 <polygon class="fil0" points="145026,49227 156719,49227 156719,37534 145026,37534 "/>
 <g style="clip-path:url(#id66)">
 </g>
 <polygon id="1" class="fil1" points="145026,49227 156719,49227 156719,37534 145026,37534 "/>
 <g style="clip-path:url(#id67)">
  <path id="2" class="fil1 str0" d="M145026 37534l11693 11693m0 -11693l-11693 11693"/>
 </g>
 <polygon id="_1_18" class="fil1" points="145026,49227 156719,49227 156719,37534 145026,37534 "/>
 <polygon class="fil0" points="145026,49227 156719,49227 156719,37534 145026,37534 "/>
 <g style="clip-path:url(#id68)">
  <path id="1" class="fil1 str1" d="M145026 37534l11693 11693m0 -11693l-11693 11693"/>
 </g>
 <polygon class="fil1" points="145026,49227 156719,49227 156719,37534 145026,37534 "/>
</symbol>
<symbol id="Symbol15" viewBox="116906 16709 11693 5262">
 <polygon class="fil0" points="116906,21971 128599,21971 128599,16709 116906,16709 "/>
 <g style="clip-path:url(#id69)">
 </g>
 <polygon id="1" class="fil1" points="116906,21971 128599,21971 128599,16709 116906,16709 "/>
 <g style="clip-path:url(#id70)">
  <path id="2" class="fil1 str0" d="M116906 16709l11693 5262m0 -5262l-11693 5262"/>
 </g>
</symbol>
<symbol id="Symbol29" viewBox="145027 1247 11693 11783">
 <polygon class="fil0" points="145027,13030 156720,13030 156720,1247 145027,1247 "/>
 <g style="clip-path:url(#id71)">
 </g>
 <polygon id="1" class="fil1" points="145027,13030 156720,13030 156720,1247 145027,1247 "/>
 <g style="clip-path:url(#id72)">
  <path id="2" class="fil1 str0" d="M145027 1247l11693 11783m0 -11783l-11693 11783"/>
 </g>
</symbol>
<symbol id="Symbol39" viewBox="145026 14586 11693 11693">
 <polygon class="fil0" points="145026,26279 156719,26279 156719,14586 145026,14586 "/>
 <polygon class="fil0" points="145026,26279 156719,26279 156719,14586 145026,14586 "/>
 <g style="clip-path:url(#id73)">
 </g>
 <polygon id="1" class="fil1" points="145026,26279 156719,26279 156719,14586 145026,14586 "/>
 <g style="clip-path:url(#id74)">
  <path id="2" class="fil1 str0" d="M145026 14586l11693 11693m0 -11693l-11693 11693"/>
 </g>
 <polygon id="_1_20" class="fil1" points="145026,26279 156719,26279 156719,14586 145026,14586 "/>
 <polygon class="fil0" points="145026,26279 156719,26279 156719,14586 145026,14586 "/>
 <g style="clip-path:url(#id75)">
  <path id="1" class="fil1 str1" d="M145026 14586l11693 11693m0 -11693l-11693 11693"/>
 </g>
 <polygon class="fil1" points="145026,26279 156719,26279 156719,14586 145026,14586 "/>
</symbol>
<symbol id="Symbol52" viewBox="145027 -9957 11693 11693">
 <polygon class="fil0" points="145027,1736 156720,1736 156720,-9957 145027,-9957 "/>
 <g style="clip-path:url(#id76)">
 </g>
 <g style="clip-path:url(#id77)">
  <image x="145027" y="-9963" width="11699" height="11699" xlink:href="shopink_Images\shopink_ImgID13.png"/>
 </g>
 <g style="clip-path:url(#id78)">
 </g>
 <polygon class="fil1" points="145027,1736 156720,1736 156720,-9957 145027,-9957 "/>
</symbol>
<symbol id="Symbol54" viewBox="145026 -7733 11693 11693">
 <polygon class="fil0" points="145026,3960 156719,3960 156719,-7733 145026,-7733 "/>
 <polygon class="fil0" points="145026,3960 156719,3960 156719,-7733 145026,-7733 "/>
 <g style="clip-path:url(#id79)">
 </g>
 <polygon id="1" class="fil1" points="145026,3960 156719,3960 156719,-7733 145026,-7733 "/>
 <g style="clip-path:url(#id80)">
  <path id="2" class="fil1 str0" d="M145026 -7733l11693 11693m0 -11693l-11693 11693"/>
 </g>
 <polygon id="_1_22" class="fil1" points="145026,3960 156719,3960 156719,-7733 145026,-7733 "/>
 <polygon class="fil0" points="145026,3960 156719,3960 156719,-7733 145026,-7733 "/>
 <g style="clip-path:url(#id81)">
  <path id="1" class="fil1 str1" d="M145026 -7733l11693 11693m0 -11693l-11693 11693"/>
 </g>
 <polygon class="fil1" points="145026,3960 156719,3960 156719,-7733 145026,-7733 "/>
</symbol>
<symbol id="Symbol59" viewBox="116906 16709 11693 5262">
 <polygon class="fil0" points="116906,21971 128599,21971 128599,16709 116906,16709 "/>
 <g style="clip-path:url(#id82)">
 </g>
 <g style="clip-path:url(#id83)">
  <image x="116906" y="16709" width="11699" height="5262" xlink:href="shopink_Images\shopink_ImgID14.png"/>
 </g>
 <g style="clip-path:url(#id84)">
 </g>
 <polygon class="fil1" points="116906,21971 128599,21971 128599,16709 116906,16709 "/>
</symbol>
<symbol id="Symbol66" viewBox="145026 14586 11693 11693">
 <polygon class="fil0" points="145026,26279 156719,26279 156719,14586 145026,14586 "/>
 <polygon class="fil0" points="145026,26279 156719,26279 156719,14586 145026,14586 "/>
 <g style="clip-path:url(#id85)">
 </g>
 <polygon id="1" class="fil1" points="145026,26279 156719,26279 156719,14586 145026,14586 "/>
 <g style="clip-path:url(#id86)">
  <path id="2" class="fil1 str0" d="M145026 14586l11693 11693m0 -11693l-11693 11693"/>
 </g>
 <polygon id="_1_24" class="fil1" points="145026,26279 156719,26279 156719,14586 145026,14586 "/>
 <polygon class="fil0" points="145026,26279 156719,26279 156719,14586 145026,14586 "/>
 <g style="clip-path:url(#id87)">
  <path id="1" class="fil1 str1" d="M145026 14586l11693 11693m0 -11693l-11693 11693"/>
 </g>
 <polygon class="fil1" points="145026,26279 156719,26279 156719,14586 145026,14586 "/>
</symbol>
<symbol id="Fm1-199-0" viewBox="22561 5147 1819 1819">
 <g style="clip-path:url(#id88)">
  <image x="22561" y="5146" width="1820" height="1820" xlink:href="shopink_Images\shopink_ImgID15.png"/>
 </g>
</symbol>
<symbol id="Fm3-201-0" viewBox="21102 3661 1611 931">
 <g style="clip-path:url(#id89)">
  <image x="21102" y="3660" width="1612" height="931" xlink:href="shopink_Images\shopink_ImgID16.png"/>
 </g>
</symbol>
<symbol id="Symbol45" viewBox="100336 5029 11693 4584">
 <polygon class="fil0" points="100336,9613 112029,9613 112029,5030 100336,5030 "/>
 <polygon class="fil0" points="100336,9613 112029,9613 112029,5029 100336,5029 "/>
 <g style="clip-path:url(#id90)">
 </g>
 <polygon id="1" class="fil1" points="100336,9613 112029,9613 112029,5029 100336,5029 "/>
 <g style="clip-path:url(#id91)">
  <path id="2" class="fil1 str0" d="M100336 5029l11693 4584m0 -4584l-11693 4584"/>
 </g>
 <polygon id="_1_26" class="fil1" points="100336,9613 112029,9613 112029,5030 100336,5030 "/>
 <polygon class="fil0" points="100336,9613 112029,9613 112029,5029 100336,5029 "/>
 <g style="clip-path:url(#id92)">
  <path id="1" class="fil1 str1" d="M100336 5030l11693 4584m0 -4584l-11693 4584"/>
 </g>
 <polygon class="fil1" points="100336,9613 112029,9613 112029,5029 100336,5029 "/>
</symbol>
<symbol id="Symbol70" viewBox="112615 35927 11693 11693">
 <polygon class="fil0" points="112615,47620 124308,47620 124308,35927 112615,35927 "/>
 <polygon class="fil0" points="112615,47620 124308,47620 124308,35927 112615,35927 "/>
 <g style="clip-path:url(#id93)">
 </g>
 <polygon id="1" class="fil1" points="112615,47620 124308,47620 124308,35927 112615,35927 "/>
 <g style="clip-path:url(#id94)">
  <path id="2" class="fil1 str0" d="M112615 35927l11693 11693m0 -11693l-11693 11693"/>
 </g>
 <polygon id="_1_28" class="fil1" points="112615,47620 124308,47620 124308,35927 112615,35927 "/>
 <polygon class="fil0" points="112615,47620 124308,47620 124308,35927 112615,35927 "/>
 <g style="clip-path:url(#id95)">
  <path id="1" class="fil1 str1" d="M112615 35927l11693 11693m0 -11693l-11693 11693"/>
 </g>
 <polygon class="fil1" points="112615,47620 124308,47620 124308,35927 112615,35927 "/>
</symbol>
<symbol id="Symbol13" viewBox="116906 16709 11693 5262">
 <polygon class="fil0" points="116906,21971 128599,21971 128599,16709 116906,16709 "/>
 <g style="clip-path:url(#id96)">
 </g>
 <polygon id="1" class="fil1" points="116906,21971 128599,21971 128599,16709 116906,16709 "/>
 <g style="clip-path:url(#id97)">
  <path id="2" class="fil1 str0" d="M116906 16709l11693 5262m0 -5262l-11693 5262"/>
 </g>
</symbol>
<symbol id="Symbol37" viewBox="112616 33703 11693 11693">
 <polygon class="fil0" points="112616,45396 124309,45396 124309,33703 112616,33703 "/>
 <g style="clip-path:url(#id98)">
 </g>
 <g style="clip-path:url(#id99)">
  <image x="112616" y="33697" width="11699" height="11699" xlink:href="shopink_Images\shopink_ImgID17.png"/>
 </g>
 <g style="clip-path:url(#id100)">
 </g>
 <polygon class="fil1" points="112616,45396 124309,45396 124309,33703 112616,33703 "/>
</symbol>
<symbol id="Symbol41" viewBox="145026 3426 11693 11783">
 <polygon class="fil0" points="145026,15209 156719,15209 156719,3426 145026,3426 "/>
 <polygon class="fil0" points="145026,15209 156719,15209 156719,3426 145026,3426 "/>
 <g style="clip-path:url(#id101)">
 </g>
 <polygon id="1" class="fil1" points="145026,15209 156719,15209 156719,3426 145026,3426 "/>
 <g style="clip-path:url(#id102)">
  <path id="2" class="fil1 str0" d="M145026 3426l11693 11783m0 -11783l-11693 11783"/>
 </g>
 <polygon id="_1_30" class="fil1" points="145026,15209 156719,15209 156719,3426 145026,3426 "/>
 <polygon class="fil0" points="145026,15209 156719,15209 156719,3426 145026,3426 "/>
 <g style="clip-path:url(#id103)">
  <path id="1" class="fil1 str1" d="M145026 3426l11693 11783m0 -11783l-11693 11783"/>
 </g>
 <polygon class="fil1" points="145026,15209 156719,15209 156719,3426 145026,3426 "/>
</symbol>
<symbol id="Symbol5" viewBox="20686 1994 2069 931">
 <g style="clip-path:url(#id104)">
  <image x="20686" y="1994" width="2070" height="931" xlink:href="shopink_Images\shopink_ImgID18.png"/>
 </g>
</symbol>
<symbol id="Symbol30" viewBox="153162 31264 11693 6757">
 <polygon class="fil0" points="153162,38022 164855,38022 164855,31264 153162,31264 "/>
 <g style="clip-path:url(#id105)">
 </g>
 <polygon id="1" class="fil1" points="153162,38022 164855,38022 164855,31264 153162,31264 "/>
 <g style="clip-path:url(#id106)">
  <path id="2" class="fil1 str0" d="M153162 31264l11693 6757m0 -6757l-11693 6757"/>
 </g>
</symbol>
<symbol id="Symbol40" viewBox="145027 12362 11693 11693">
 <polygon class="fil0" points="145027,24055 156720,24055 156720,12362 145027,12362 "/>
 <g style="clip-path:url(#id107)">
 </g>
 <g style="clip-path:url(#id108)">
  <image x="145027" y="12362" width="11699" height="11699" xlink:href="shopink_Images\shopink_ImgID19.png"/>
 </g>
 <g style="clip-path:url(#id109)">
 </g>
 <polygon class="fil1" points="145027,24055 156720,24055 156720,12362 145027,12362 "/>
</symbol>
<symbol id="Symbol64" viewBox="100337 -749 11693 4584">
 <polygon class="fil0" points="100337,3834 112030,3834 112030,-749 100337,-749 "/>
 <g style="clip-path:url(#id110)">
 </g>
 <g style="clip-path:url(#id111)">
  <image x="100337" y="-749" width="11698" height="4584" xlink:href="shopink_Images\shopink_ImgID20.png"/>
 </g>
 <g style="clip-path:url(#id112)">
 </g>
 <polygon class="fil1" points="100337,3834 112030,3834 112030,-749 100337,-749 "/>
</symbol>
<symbol id="Symbol68" viewBox="153162 31264 11693 6757">
 <polygon class="fil0" points="153162,38022 164855,38022 164855,31264 153162,31264 "/>
 <g style="clip-path:url(#id113)">
 </g>
 <g style="clip-path:url(#id114)">
  <image x="153162" y="31257" width="11700" height="6757" xlink:href="shopink_Images\shopink_ImgID21.png"/>
 </g>
 <g style="clip-path:url(#id115)">
 </g>
 <polygon class="fil1" points="153162,38022 164855,38022 164855,31264 153162,31264 "/>
</symbol>
<symbol id="Fm8-206-0" viewBox="20380 -1326 2375 931">
 <g style="clip-path:url(#id116)">
  <image x="20380" y="-1326" width="2376" height="931" xlink:href="shopink_Images\shopink_ImgID22.png"/>
 </g>
</symbol>
<symbol id="Symbol1" viewBox="20880 411 1875 931">
 <g style="clip-path:url(#id117)">
  <image x="20880" y="410" width="1876" height="931" xlink:href="shopink_Images\shopink_ImgID23.png"/>
 </g>
</symbol>
<symbol id="Symbol9" viewBox="22561 5147 1819 1819">
 <g style="clip-path:url(#id118)">
  <image x="22561" y="5146" width="1820" height="1820" xlink:href="shopink_Images\shopink_ImgID24.png"/>
 </g>
</symbol>
<symbol id="Symbol10" viewBox="17519 4897 1819 1819">
 <g style="clip-path:url(#id119)">
  <image x="17519" y="4896" width="1820" height="1820" xlink:href="shopink_Images\shopink_ImgID25.png"/>
 </g>
</symbol>
<symbol id="Symbol38" viewBox="145027 -9957 11693 11693">
 <polygon class="fil0" points="145027,1736 156720,1736 156720,-9957 145027,-9957 "/>
 <g style="clip-path:url(#id120)">
 </g>
 <g style="clip-path:url(#id121)">
  <image x="145027" y="-9963" width="11699" height="11699" xlink:href="shopink_Images\shopink_ImgID26.png"/>
 </g>
 <g style="clip-path:url(#id122)">
 </g>
 <polygon class="fil1" points="145027,1736 156720,1736 156720,-9957 145027,-9957 "/>
</symbol>
<symbol id="Fm0-198-0" viewBox="17519 4897 1819 1819">
 <g style="clip-path:url(#id123)">
  <image x="17519" y="4896" width="1820" height="1820" xlink:href="shopink_Images\shopink_ImgID27.png"/>
 </g>
</symbol>
<symbol id="Symbol20" viewBox="100337 -749 11693 4584">
 <polygon class="fil0" points="100337,3834 112030,3834 112030,-749 100337,-749 "/>
 <g style="clip-path:url(#id124)">
 </g>
 <polygon id="1" class="fil1" points="100337,3834 112030,3834 112030,-749 100337,-749 "/>
 <g style="clip-path:url(#id125)">
  <path id="2" class="fil1 str0" d="M100337 -749l11693 4584m0 -4584l-11693 4584"/>
 </g>
</symbol>
<symbol id="Symbol26" viewBox="145027 12362 11693 11693">
 <polygon class="fil0" points="145027,24055 156720,24055 156720,12362 145027,12362 "/>
 <g style="clip-path:url(#id126)">
 </g>
 <polygon id="1" class="fil1" points="145027,24055 156720,24055 156720,12362 145027,12362 "/>
 <g style="clip-path:url(#id127)">
  <path id="2" class="fil1 str0" d="M145027 12362l11693 11693m0 -11693l-11693 11693"/>
 </g>
</symbol>
<symbol id="Symbol27" viewBox="145027 35310 11693 11693">
 <polygon class="fil0" points="145027,47003 156720,47003 156720,35310 145027,35310 "/>
 <g style="clip-path:url(#id128)">
 </g>
 <polygon id="1" class="fil1" points="145027,47003 156720,47003 156720,35310 145027,35310 "/>
 <g style="clip-path:url(#id129)">
  <path id="2" class="fil1 str0" d="M145027 35310l11693 11693m0 -11693l-11693 11693"/>
 </g>
</symbol>
<symbol id="Symbol28" viewBox="145027 12362 11693 11693">
 <polygon class="fil0" points="145027,24055 156720,24055 156720,12362 145027,12362 "/>
 <g style="clip-path:url(#id130)">
 </g>
 <polygon id="1" class="fil1" points="145027,24055 156720,24055 156720,12362 145027,12362 "/>
 <g style="clip-path:url(#id131)">
  <path id="2" class="fil1 str0" d="M145027 12362l11693 11693m0 -11693l-11693 11693"/>
 </g>
</symbol>
<symbol id="Symbol12" viewBox="100337 -749 11693 4584">
 <polygon class="fil0" points="100337,3834 112030,3834 112030,-749 100337,-749 "/>
 <g style="clip-path:url(#id132)">
 </g>
 <polygon id="1" class="fil1" points="100337,3834 112030,3834 112030,-749 100337,-749 "/>
 <g style="clip-path:url(#id133)">
  <path id="2" class="fil1 str0" d="M100337 -749l11693 4584m0 -4584l-11693 4584"/>
 </g>
</symbol>
<symbol id="Symbol21" viewBox="112616 33703 11693 11693">
 <polygon class="fil0" points="112616,45396 124309,45396 124309,33703 112616,33703 "/>
 <g style="clip-path:url(#id134)">
 </g>
 <polygon id="1" class="fil1" points="112616,45396 124309,45396 124309,33703 112616,33703 "/>
 <g style="clip-path:url(#id135)">
  <path id="2" class="fil1 str0" d="M112616 33703l11693 11693m0 -11693l-11693 11693"/>
 </g>
</symbol>
<symbol id="Symbol3" viewBox="22561 -1895 1819 1819">
 <g style="clip-path:url(#id136)">
  <image x="22561" y="-1896" width="1820" height="1820" xlink:href="shopink_Images\shopink_ImgID28.png"/>
 </g>
</symbol>
<symbol id="Symbol25" viewBox="130212 7731 11693 5806">
 <polygon class="fil0" points="130212,13537 141905,13537 141905,7731 130212,7731 "/>
 <g style="clip-path:url(#id137)">
 </g>
 <polygon id="1" class="fil1" points="130212,13537 141905,13537 141905,7731 130212,7731 "/>
 <g style="clip-path:url(#id138)">
  <path id="2" class="fil1 str0" d="M130212 7731l11693 5806m0 -5806l-11693 5806"/>
 </g>
</symbol>
<symbol id="Symbol65" viewBox="145027 35310 11693 11693">
 <polygon class="fil0" points="145027,47003 156720,47003 156720,35310 145027,35310 "/>
 <g style="clip-path:url(#id139)">
 </g>
 <g style="clip-path:url(#id140)">
  <image x="145027" y="35304" width="11699" height="11699" xlink:href="shopink_Images\shopink_ImgID29.png"/>
 </g>
 <g style="clip-path:url(#id141)">
 </g>
 <polygon class="fil1" points="145027,47003 156720,47003 156720,35310 145027,35310 "/>
</symbol>
<symbol id="Symbol4" viewBox="22561 -145 1819 1833">
 <g style="clip-path:url(#id142)">
  <image x="22561" y="-146" width="1820" height="1834" xlink:href="shopink_Images\shopink_ImgID30.png"/>
 </g>
</symbol>
<symbol id="Symbol8" viewBox="22561 3258 1819 1819">
 <g style="clip-path:url(#id143)">
  <image x="22561" y="3257" width="1820" height="1820" xlink:href="shopink_Images\shopink_ImgID31.png"/>
 </g>
</symbol>
<symbol id="Symbol16" viewBox="145027 23168 11693 11693">
 <polygon class="fil0" points="145027,34860 156720,34860 156720,23168 145027,23168 "/>
 <g style="clip-path:url(#id144)">
 </g>
 <polygon id="1" class="fil1" points="145027,34860 156720,34860 156720,23168 145027,23168 "/>
 <g style="clip-path:url(#id145)">
  <path id="2" class="fil1 str0" d="M145027 23168l11693 11693m0 -11693l-11693 11693"/>
 </g>
</symbol>
<symbol id="Symbol42" viewBox="130212 7731 11693 5806">
 <polygon class="fil0" points="130212,13537 141905,13537 141905,7731 130212,7731 "/>
 <g style="clip-path:url(#id146)">
 </g>
 <g style="clip-path:url(#id147)">
  <image x="130212" y="7725" width="11699" height="5806" xlink:href="shopink_Images\shopink_ImgID32.png"/>
 </g>
 <g style="clip-path:url(#id148)">
 </g>
 <polygon class="fil1" points="130212,13537 141905,13537 141905,7731 130212,7731 "/>
</symbol>
<symbol id="Symbol43" viewBox="130212 7731 11693 5806">
 <polygon class="fil0" points="130212,13537 141905,13537 141905,7731 130212,7731 "/>
 <g style="clip-path:url(#id149)">
 </g>
 <g style="clip-path:url(#id150)">
  <image x="130212" y="7725" width="11699" height="5806" xlink:href="shopink_Images\shopink_ImgID33.png"/>
 </g>
 <g style="clip-path:url(#id151)">
 </g>
 <polygon class="fil1" points="130212,13537 141905,13537 141905,7731 130212,7731 "/>
</symbol>
<symbol id="Symbol61" viewBox="153162 31264 11693 6757">
 <polygon class="fil0" points="153162,38022 164855,38022 164855,31264 153162,31264 "/>
 <g style="clip-path:url(#id152)">
 </g>
 <g style="clip-path:url(#id153)">
  <image x="153162" y="31257" width="11700" height="6757" xlink:href="shopink_Images\shopink_ImgID34.png"/>
 </g>
 <g style="clip-path:url(#id154)">
 </g>
 <polygon class="fil1" points="153162,38022 164855,38022 164855,31264 153162,31264 "/>
</symbol>
<symbol id="Fm2-200-0" viewBox="22561 3258 1819 1819">
 <g style="clip-path:url(#id155)">
  <image x="22561" y="3257" width="1820" height="1820" xlink:href="shopink_Images\shopink_ImgID35.png"/>
 </g>
</symbol>
<symbol id="Symbol2" viewBox="20380 -1326 2375 931">
 <g style="clip-path:url(#id156)">
  <image x="20380" y="-1326" width="2376" height="931" xlink:href="shopink_Images\shopink_ImgID36.png"/>
 </g>
</symbol>
<symbol id="Symbol14" viewBox="145027 35310 11693 11693">
 <polygon class="fil0" points="145027,47003 156720,47003 156720,35310 145027,35310 "/>
 <g style="clip-path:url(#id157)">
 </g>
 <polygon id="1" class="fil1" points="145027,47003 156720,47003 156720,35310 145027,35310 "/>
 <g style="clip-path:url(#id158)">
  <path id="2" class="fil1 str0" d="M145027 35310l11693 11693m0 -11693l-11693 11693"/>
 </g>
</symbol>
<symbol id="Symbol62" viewBox="100337 -749 11693 4584">
 <polygon class="fil0" points="100337,3834 112030,3834 112030,-749 100337,-749 "/>
 <g style="clip-path:url(#id159)">
 </g>
 <g style="clip-path:url(#id160)">
  <image x="100337" y="-749" width="11698" height="4584" xlink:href="shopink_Images\shopink_ImgID37.png"/>
 </g>
 <g style="clip-path:url(#id161)">
 </g>
 <polygon class="fil1" points="100337,3834 112030,3834 112030,-749 100337,-749 "/>
</symbol>
<symbol id="Fm7-205-0" viewBox="22561 -1895 1819 1819">
 <g style="clip-path:url(#id162)">
  <image x="22561" y="-1896" width="1820" height="1820" xlink:href="shopink_Images\shopink_ImgID38.png"/>
 </g>
</symbol>
<symbol id="Symbol24" viewBox="145027 1247 11693 11783">
 <polygon class="fil0" points="145027,13030 156720,13030 156720,1247 145027,1247 "/>
 <g style="clip-path:url(#id163)">
 </g>
 <polygon id="1" class="fil1" points="145027,13030 156720,13030 156720,1247 145027,1247 "/>
 <g style="clip-path:url(#id164)">
  <path id="2" class="fil1 str0" d="M145027 1247l11693 11783m0 -11783l-11693 11783"/>
 </g>
</symbol>
<symbol id="Symbol46" viewBox="130211 12899 11693 5806">
 <polygon class="fil0" points="130211,18705 141904,18705 141904,12899 130211,12899 "/>
 <polygon class="fil0" points="130211,18705 141904,18705 141904,12899 130211,12899 "/>
 <g style="clip-path:url(#id165)">
 </g>
 <polygon id="1" class="fil1" points="130211,18705 141904,18705 141904,12899 130211,12899 "/>
 <g style="clip-path:url(#id166)">
  <path id="2" class="fil1 str0" d="M130211 12899l11693 5806m0 -5806l-11693 5806"/>
 </g>
 <polygon id="_1_32" class="fil1" points="130211,18705 141904,18705 141904,12899 130211,12899 "/>
 <polygon class="fil0" points="130211,18705 141904,18705 141904,12899 130211,12899 "/>
 <g style="clip-path:url(#id167)">
  <path id="1" class="fil1 str1" d="M130211 12899l11693 5806m0 -5806l-11693 5806"/>
 </g>
 <polygon class="fil1" points="130211,18705 141904,18705 141904,12899 130211,12899 "/>
</symbol>
<symbol id="Symbol47" viewBox="145026 3426 11693 11783">
 <polygon class="fil0" points="145026,15209 156719,15209 156719,3426 145026,3426 "/>
 <polygon class="fil0" points="145026,15209 156719,15209 156719,3426 145026,3426 "/>
 <g style="clip-path:url(#id168)">
 </g>
 <polygon id="1" class="fil1" points="145026,15209 156719,15209 156719,3426 145026,3426 "/>
 <g style="clip-path:url(#id169)">
  <path id="2" class="fil1 str0" d="M145026 3426l11693 11783m0 -11783l-11693 11783"/>
 </g>
 <polygon id="_1_34" class="fil1" points="145026,15209 156719,15209 156719,3426 145026,3426 "/>
 <polygon class="fil0" points="145026,15209 156719,15209 156719,3426 145026,3426 "/>
 <g style="clip-path:url(#id170)">
  <path id="1" class="fil1 str1" d="M145026 3426l11693 11783m0 -11783l-11693 11783"/>
 </g>
 <polygon class="fil1" points="145026,15209 156719,15209 156719,3426 145026,3426 "/>
</symbol>
<symbol id="Symbol49" viewBox="145027 1247 11693 11783">
 <polygon class="fil0" points="145027,13030 156720,13030 156720,1247 145027,1247 "/>
 <g style="clip-path:url(#id171)">
 </g>
 <g style="clip-path:url(#id172)">
  <image x="145027" y="1241" width="11699" height="11789" xlink:href="shopink_Images\shopink_ImgID39.png"/>
 </g>
 <g style="clip-path:url(#id173)">
 </g>
 <polygon class="fil1" points="145027,13030 156720,13030 156720,1247 145027,1247 "/>
</symbol>
<symbol id="Symbol51" viewBox="112615 35927 11693 11693">
 <polygon class="fil0" points="112615,47620 124308,47620 124308,35927 112615,35927 "/>
 <polygon class="fil0" points="112615,47620 124308,47620 124308,35927 112615,35927 "/>
 <g style="clip-path:url(#id174)">
 </g>
 <polygon id="1" class="fil1" points="112615,47620 124308,47620 124308,35927 112615,35927 "/>
 <g style="clip-path:url(#id175)">
  <path id="2" class="fil1 str0" d="M112615 35927l11693 11693m0 -11693l-11693 11693"/>
 </g>
 <polygon id="_1_36" class="fil1" points="112615,47620 124308,47620 124308,35927 112615,35927 "/>
 <polygon class="fil0" points="112615,47620 124308,47620 124308,35927 112615,35927 "/>
 <g style="clip-path:url(#id176)">
  <path id="1" class="fil1 str1" d="M112615 35927l11693 11693m0 -11693l-11693 11693"/>
 </g>
 <polygon class="fil1" points="112615,47620 124308,47620 124308,35927 112615,35927 "/>
</symbol>
<symbol id="Symbol58" viewBox="116906 16709 11693 5262">
 <polygon class="fil0" points="116906,21971 128599,21971 128599,16709 116906,16709 "/>
 <g style="clip-path:url(#id177)">
 </g>
 <g style="clip-path:url(#id178)">
  <image x="116906" y="16709" width="11699" height="5262" xlink:href="shopink_Images\shopink_ImgID40.png"/>
 </g>
 <g style="clip-path:url(#id179)">
 </g>
 <polygon class="fil1" points="116906,21971 128599,21971 128599,16709 116906,16709 "/>
</symbol>
 <g id="Layer_x0020_1">
  <metadata id="CorelCorpID_0Corel-Layer"/>
  <g id="_318745584">
   <circle class="fil2" cx="1688" cy="5605" r="833"/>
   <path class="fil3" d="M1461 5373l-92 0 0 459 0 0c0,16 4,32 12,46 7,12 17,22 29,29l294 0 295 0c13,-7 23,-15 30,-26 7,-11 11,-26 11,-43l0 -468 -82 0 -26 0 0 -26 0 -43c-4,-23 -15,-44 -32,-59 -17,-16 -38,-27 -63,-30 -24,-3 -48,2 -68,13 -20,11 -37,29 -46,52l-49 -3c-6,-23 -20,-41 -38,-53 -18,-12 -41,-18 -64,-16 -23,2 -44,13 -59,29 -15,16 -24,36 -26,59l0 0 0 55 0 26 -26 0zm-119 -53l92 0 0 -29 0 -1c2,-36 17,-69 40,-94 23,-25 55,-41 91,-45 36,-4 71,6 99,25 14,10 27,22 37,37 12,-13 26,-25 41,-34 30,-17 65,-24 101,-20 36,5 68,21 93,45 25,24 42,56 47,91l0 4 0 18 82 0 26 0 0 26 0 494 0 0c0,27 -7,51 -20,71 -13,20 -32,36 -57,47l-11 2 -301 0 -301 0 -12 -3c-24,-12 -43,-30 -56,-52 -13,-22 -20,-47 -20,-73l0 0 0 -485 0 -26 26 0z"/>
   <path class="fil1" d="M1721 5335c-8,-59 -9,-59 -3,-1"/>
   <path class="fil3" d="M1643 5164c30,11 52,32 67,60 14,27 21,60 21,98l0 0 0 29 -53 0 0 -29 0 0c0,-29 -5,-54 -15,-73 -9,-17 -22,-29 -39,-35l18 -49z"/>
   <polygon class="fil3" points="1954,5371 1678,5371 1678,5344 1954,5344 "/>
   <polygon class="fil3" points="1830,5358 1830,5933 1803,5933 1803,5358 "/>
   <path class="fil4" d="M1540 5347l77 0 0 -34c1,-14 -6,-28 -18,-36 -12,-8 -28,-8 -40,0 -12,8 -19,21 -18,36 -1,1 -1,1 0,2l0 32z"/>
   <g>
    <rect class="fil4" x="1778" y="5308" width="76.9646" height="39.4638"/>
    <path class="fil4" d="M1778 5314c-1,-14 6,-28 18,-36 12,-8 28,-8 40,0 12,8 19,21 18,36 -55,6 -81,6 -77,0z"/>
   </g>
  </g>
 </g>
</svg>
