<?xml version="1.0" encoding="utf-8"?>
<!-- Generator: Adobe Illustrator 19.0.0, SVG Export Plug-In . SVG Version: 6.00 Build 0)  -->
<svg version="1.1" id="Layer_1" xmlns="http://www.w3.org/2000/svg" xmlns:xlink="http://www.w3.org/1999/xlink" x="0px" y="0px"
	 viewBox="0 0 500 500" style="enable-background:new 0 0 500 500;" xml:space="preserve">
<style type="text/css">
	.st0{fill:#FFFFFF;}
</style>
<g id="Layer_x0020_1">
	<path class="st0" d="M282.5,220.2h-14.3c-1.9,0-4.1-1.5-4.7-3.4l-3.7-11.1c-0.6-1.9-2.7-3.4-4.7-3.4h-40.5c-1.9,0-4.1,1.5-4.7,3.4
		l-3.7,11.1c-0.6,1.9-2.7,3.4-4.7,3.4h-14.3c-6.6,0-11.9,5.4-11.9,11.9v53.6c0,6.6,5.4,11.9,11.9,11.9h95.3
		c6.6,0,11.9-5.4,11.9-11.9v-53.6C294.5,225.6,289.1,220.2,282.5,220.2L282.5,220.2z M235.3,284.9c-16.4,0-29.8-13.3-29.8-29.8
		c0-16.4,13.3-29.8,29.8-29.8c16.4,0,29.8,13.3,29.8,29.8S251.8,284.9,235.3,284.9z"/>
	<path class="st0" d="M235.3,237.2c-9.9,0-17.9,8-17.9,17.9s8,17.9,17.9,17.9s17.9-8,17.9-17.9S245.2,237.2,235.3,237.2z"/>
</g>
</svg>
