<?xml version="1.0" encoding="utf-8"?>
<!-- Generator: Adobe Illustrator 19.0.0, SVG Export Plug-In . SVG Version: 6.00 Build 0)  -->
<svg version="1.1" id="Layer_1" xmlns="http://www.w3.org/2000/svg" xmlns:xlink="http://www.w3.org/1999/xlink" x="0px" y="0px"
	 viewBox="-261 135 500 500" style="enable-background:new -261 135 500 500;" xml:space="preserve">
<style type="text/css">
	.st0{fill:#4C4C4C;}
</style>
<g id="XMLID_1228_">
	<g id="XMLID_1230_">
		<path id="XMLID_5632_" class="st0" d="M-20.1,385.5c-12.9,0-23.4-10.5-23.4-23.4c0-12.9,10.5-23.4,23.4-23.4s23.4,10.5,23.4,23.4
			C3.3,375-7.2,385.5-20.1,385.5z M-20.1,342.4c-10.8,0-19.7,8.8-19.7,19.7s8.8,19.7,19.7,19.7c10.8,0,19.7-8.8,19.7-19.7
			S-9.3,342.4-20.1,342.4z"/>
	</g>
	<g id="XMLID_1229_">
		<path id="XMLID_5631_" class="st0" d="M-56.7,431.3c-0.4-10.3,3.3-20.2,10.4-27.7s16.6-11.9,26.9-12.3c21.3-0.7,39.3,16,40,37.3
			l-3.7,0.1C16.2,409.4,0,394.3-19.2,395c-9.3,0.3-18,4.3-24.3,11.1c-6.3,6.8-9.7,15.7-9.4,25L-56.7,431.3z"/>
	</g>
</g>
</svg>
